hw/testbenches/dds_playback/waveform.vcd
$version Generated by VerilatedVcd $end
$timescale 1ps $end
 $scope module TOP $end
  $var wire 1 X clk $end
  $var wire 1 Y reset $end
  $var wire 16 Z writedata [15:0] $end
  $var wire 16 [ readdata [15:0] $end
  $var wire 1 \ write $end
  $var wire 1 ] chipselect $end
  $var wire 18 ^ address [17:0] $end
  $var wire 1 _ ready_left $end
  $var wire 1 ` ready_right $end
  $var wire 16 a sample [15:0] $end
  $var wire 1 b sample_valid $end
  $scope module wave_table_synth $end
   $var wire 1 X clk $end
   $var wire 1 Y reset $end
   $var wire 16 Z writedata [15:0] $end
   $var wire 16 [ readdata [15:0] $end
   $var wire 1 \ write $end
   $var wire 1 ] chipselect $end
   $var wire 18 ^ address [17:0] $end
   $var wire 1 _ ready_left $end
   $var wire 1 ` ready_right $end
   $var wire 16 a sample [15:0] $end
   $var wire 1 b sample_valid $end
   $var wire 32 g NUM_VOICES [31:0] $end
   $var wire 32 h WAVETABLE_DEPTH [31:0] $end
   $var wire 1 c is_wavetable $end
   $var wire 3 d voice_sel [2:0] $end
   $var wire 2 e reg_sel [1:0] $end
   $var wire 1 # note_on_reg[0] $end
   $var wire 1 $ note_on_reg[1] $end
   $var wire 1 % note_on_reg[2] $end
   $var wire 1 & note_on_reg[3] $end
   $var wire 1 ' note_on_reg[4] $end
   $var wire 1 ( note_on_reg[5] $end
   $var wire 1 ) note_on_reg[6] $end
   $var wire 1 * note_on_reg[7] $end
   $var wire 16 + step_size_reg[0] [15:0] $end
   $var wire 16 , step_size_reg[1] [15:0] $end
   $var wire 16 - step_size_reg[2] [15:0] $end
   $var wire 16 . step_size_reg[3] [15:0] $end
   $var wire 16 / step_size_reg[4] [15:0] $end
   $var wire 16 0 step_size_reg[5] [15:0] $end
   $var wire 16 1 step_size_reg[6] [15:0] $end
   $var wire 16 2 step_size_reg[7] [15:0] $end
   $var wire 7 3 velocity_reg[0] [6:0] $end
   $var wire 7 4 velocity_reg[1] [6:0] $end
   $var wire 7 5 velocity_reg[2] [6:0] $end
   $var wire 7 6 velocity_reg[3] [6:0] $end
   $var wire 7 7 velocity_reg[4] [6:0] $end
   $var wire 7 8 velocity_reg[5] [6:0] $end
   $var wire 7 9 velocity_reg[6] [6:0] $end
   $var wire 7 : velocity_reg[7] [6:0] $end
   $var wire 4 ; slot_select_reg[0] [3:0] $end
   $var wire 4 < slot_select_reg[1] [3:0] $end
   $var wire 4 = slot_select_reg[2] [3:0] $end
   $var wire 4 > slot_select_reg[3] [3:0] $end
   $var wire 4 ? slot_select_reg[4] [3:0] $end
   $var wire 4 @ slot_select_reg[5] [3:0] $end
   $var wire 4 A slot_select_reg[6] [3:0] $end
   $var wire 4 B slot_select_reg[7] [3:0] $end
   $var wire 16 C avalon_rdata [15:0] $end
   $var wire 16 D dds_read_addr [15:0] $end
   $var wire 16 E dds_rdata [15:0] $end
   $var wire 1 F is_wavetable_r $end
   $var wire 16 G ctrl_rdata [15:0] $end
   $var wire 20 H phase_acc[0] [19:0] $end
   $var wire 20 I phase_acc[1] [19:0] $end
   $var wire 20 J phase_acc[2] [19:0] $end
   $var wire 20 K phase_acc[3] [19:0] $end
   $var wire 20 L phase_acc[4] [19:0] $end
   $var wire 20 M phase_acc[5] [19:0] $end
   $var wire 20 N phase_acc[6] [19:0] $end
   $var wire 20 O phase_acc[7] [19:0] $end
   $var wire 1 f sink_ready $end
   $var wire 3 P state [2:0] $end
   $var wire 3 Q voice_idx [2:0] $end
   $var wire 19 R mix_acc [18:0] $end
   $var wire 24 S voice_product [23:0] $end
   $var wire 16 T voice_scaled [15:0] $end
   $scope module unnamedblk1 $end
    $var wire 32 U i [31:0] $end
   $upscope $end
   $scope module unnamedblk2 $end
    $var wire 32 V i [31:0] $end
   $upscope $end
   $scope module unnamedblk3 $end
    $var wire 32 W i [31:0] $end
   $upscope $end
  $upscope $end
 $upscope $end
$enddefinitions $end


#0
1#
1$
1%
1&
1'
1(
1)
1*
b1110100011100000 +
b1110100011100000 ,
b1110100011100000 -
b1110100011100000 .
b1110100011100000 /
b1110100011100000 0
b1110100011100000 1
b1110100011100000 2
b1101000 3
b1101000 4
b1101000 5
b1101000 6
b1101000 7
b1101000 8
b1101000 9
b1101000 :
b1111 ;
b1111 <
b1111 =
b1111 >
b1111 ?
b1111 @
b1111 A
b1111 B
b1111100010100110 C
b1100101111100011 D
b1000101001010011 E
1F
b0100100001000011 G
b10000000100011110101 H
b10000000100011110101 I
b10000000100011110101 J
b10000000100011110101 K
b10000000100011110101 L
b10000000100011110101 M
b10000000100011110101 N
b10000000100011110101 O
b111 P
b101 Q
b1100011100110110111 R
b110100000011000110111000 S
b1010000001100011 T
b00000000000000000000000000000000 U
b00000000000000000000000000000000 V
b00000000000000000000000000000000 W
0X
1Y
b0000000000000000 Z
b1111100010100110 [
0\
0]
b000000000000000000 ^
0_
0`
b1011000000101111 a
1b
0c
b000 d
b00 e
0f
b00000000000000000000000000001000 g
b00000000000000001100000000000000 h
#1
0#
0$
0%
0&
0'
0(
0)
0*
b0000000000000000 +
b0000000000000000 ,
b0000000000000000 -
b0000000000000000 .
b0000000000000000 /
b0000000000000000 0
b0000000000000000 1
b0000000000000000 2
b0000000 3
b0000000 4
b0000000 5
b0000000 6
b0000000 7
b0000000 8
b0000000 9
b0000000 :
b0000 ;
b0000 <
b0000 =
b0000 >
b0000 ?
b0000 @
b0000 A
b0000 B
b0100110001011001 C
b0101111110001111 E
0F
b0000000000000001 G
b00000000000000000000 H
b00000000000000000000 I
b00000000000000000000 J
b00000000000000000000 K
b00000000000000000000 L
b00000000000000000000 M
b00000000000000000000 N
b00000000000000000000 O
b000 P
b000 Q
b0000000000000000000 R
b000000000000000000000000 S
b0000000000000000 T
b00000000000000000000000000001000 U
b00000000000000000000000000001000 V
1X
b0000000000000001 [
b0000000000000000 a
0b
#2
0X
#3
b0000000000000000 G
1X
b0000000000000000 [
#4
0X
#5
1X
#6
0X
#7
1X
#8
0X
0Y
#9
b00000000000000000000000000001000 W
1X
#10
0X
1\
1]
b100000000000000000 ^
1c
#11
1F
1X
b0100110001011001 [
#12
0X
b0000000100000000 Z
b100000000000000001 ^
b01 e
#13
1X
#14
0X
b0000001000000000 Z
b100000000000000010 ^
b10 e
#15
1X
#16
0X
b0000001100000000 Z
b100000000000000011 ^
b11 e
#17
1X
#18
0X
b0000010000000000 Z
b100000000000000100 ^
b001 d
b00 e
#19
1X
#20
0X
b0000010100000000 Z
b100000000000000101 ^
b01 e
#21
1X
#22
0X
b0000011000000000 Z
b100000000000000110 ^
b10 e
#23
1X
#24
0X
b0000011100000000 Z
b100000000000000111 ^
b11 e
#25
1X
#26
0X
b0000100000000000 Z
b100000000000001000 ^
b010 d
b00 e
#27
1X
#28
0X
b0000100100000000 Z
b100000000000001001 ^
b01 e
#29
1X
#30
0X
b0000101000000000 Z
b100000000000001010 ^
b10 e
#31
1X
#32
0X
b0000101100000000 Z
b100000000000001011 ^
b11 e
#33
1X
#34
0X
b0000110000000000 Z
b100000000000001100 ^
b011 d
b00 e
#35
1X
#36
0X
b0000110100000000 Z
b100000000000001101 ^
b01 e
#37
1X
#38
0X
b0000111000000000 Z
b100000000000001110 ^
b10 e
#39
1X
#40
0X
b0000111100000000 Z
b100000000000001111 ^
b11 e
#41
1X
#42
0X
b0001000000000000 Z
b100000000000010000 ^
b100 d
b00 e
#43
1X
#44
0X
b0001000100000000 Z
b100000000000010001 ^
b01 e
#45
1X
#46
0X
b0001001000000000 Z
b100000000000010010 ^
b10 e
#47
1X
#48
0X
b0001001100000000 Z
b100000000000010011 ^
b11 e
#49
1X
#50
0X
b0001010000000000 Z
b100000000000010100 ^
b101 d
b00 e
#51
1X
#52
0X
b0001010100000000 Z
b100000000000010101 ^
b01 e
#53
1X
#54
0X
b0001011000000000 Z
b100000000000010110 ^
b10 e
#55
1X
#56
0X
b0001011100000000 Z
b100000000000010111 ^
b11 e
#57
1X
#58
0X
b0001100000000000 Z
b100000000000011000 ^
b110 d
b00 e
#59
1X
#60
0X
b0001100100000000 Z
b100000000000011001 ^
b01 e
#61
1X
#62
0X
b0001101000000000 Z
b100000000000011010 ^
b10 e
#63
1X
#64
0X
b0001101100000000 Z
b100000000000011011 ^
b11 e
#65
1X
#66
0X
b0001110000000000 Z
b100000000000011100 ^
b111 d
b00 e
#67
1X
#68
0X
b0001110100000000 Z
b100000000000011101 ^
b01 e
#69
1X
#70
0X
b0001111000000000 Z
b100000000000011110 ^
b10 e
#71
1X
#72
0X
b0001111100000000 Z
b100000000000011111 ^
b11 e
#73
1X
#74
0X
b0010000000000000 Z
b100000000000100000 ^
b000 d
b00 e
#75
1X
#76
0X
b0010000100000000 Z
b100000000000100001 ^
b01 e
#77
1X
#78
0X
b0010001000000000 Z
b100000000000100010 ^
b10 e
#79
1X
#80
0X
b0010001100000000 Z
b100000000000100011 ^
b11 e
#81
1X
#82
0X
b0010010000000000 Z
b100000000000100100 ^
b001 d
b00 e
#83
1X
#84
0X
b0010010100000000 Z
b100000000000100101 ^
b01 e
#85
1X
#86
0X
b0010011000000000 Z
b100000000000100110 ^
b10 e
#87
1X
#88
0X
b0010011100000000 Z
b100000000000100111 ^
b11 e
#89
1X
#90
0X
b0010100000000000 Z
b100000000000101000 ^
b010 d
b00 e
#91
1X
#92
0X
b0010100100000000 Z
b100000000000101001 ^
b01 e
#93
1X
#94
0X
b0010101000000000 Z
b100000000000101010 ^
b10 e
#95
1X
#96
0X
b0010101100000000 Z
b100000000000101011 ^
b11 e
#97
1X
#98
0X
b0010110000000000 Z
b100000000000101100 ^
b011 d
b00 e
#99
1X
#100
0X
b0010110100000000 Z
b100000000000101101 ^
b01 e
#101
1X
#102
0X
b0010111000000000 Z
b100000000000101110 ^
b10 e
#103
1X
#104
0X
b0010111100000000 Z
b100000000000101111 ^
b11 e
#105
1X
#106
0X
b0011000000000000 Z
b100000000000110000 ^
b100 d
b00 e
#107
1X
#108
0X
b0011000100000000 Z
b100000000000110001 ^
b01 e
#109
1X
#110
0X
b0011001000000000 Z
b100000000000110010 ^
b10 e
#111
1X
#112
0X
b0011001100000000 Z
b100000000000110011 ^
b11 e
#113
1X
#114
0X
b0011010000000000 Z
b100000000000110100 ^
b101 d
b00 e
#115
1X
#116
0X
b0011010100000000 Z
b100000000000110101 ^
b01 e
#117
1X
#118
0X
b0011011000000000 Z
b100000000000110110 ^
b10 e
#119
1X
#120
0X
b0011011100000000 Z
b100000000000110111 ^
b11 e
#121
1X
#122
0X
b0011100000000000 Z
b100000000000111000 ^
b110 d
b00 e
#123
1X
#124
0X
b0011100100000000 Z
b100000000000111001 ^
b01 e
#125
1X
#126
0X
b0011101000000000 Z
b100000000000111010 ^
b10 e
#127
1X
#128
0X
b0011101100000000 Z
b100000000000111011 ^
b11 e
#129
1X
#130
0X
b0011110000000000 Z
b100000000000111100 ^
b111 d
b00 e
#131
1X
#132
0X
b0011110100000000 Z
b100000000000111101 ^
b01 e
#133
1X
#134
0X
b0011111000000000 Z
b100000000000111110 ^
b10 e
#135
1X
#136
0X
b0011111100000000 Z
b100000000000111111 ^
b11 e
#137
1X
#138
0X
b0010000000000000 Z
b100001000000000000 ^
b000 d
b00 e
#139
1X
#140
0X
b100001000000000001 ^
b01 e
#141
1X
#142
0X
b100001000000000010 ^
b10 e
#143
1X
#144
0X
b100001000000000011 ^
b11 e
#145
1X
#146
0X
b100001000000000100 ^
b001 d
b00 e
#147
1X
#148
0X
b100001000000000101 ^
b01 e
#149
1X
#150
0X
b100001000000000110 ^
b10 e
#151
1X
#152
0X
b100001000000000111 ^
b11 e
#153
1X
#154
0X
b100001000000001000 ^
b010 d
b00 e
#155
1X
#156
0X
b100001000000001001 ^
b01 e
#157
1X
#158
0X
b100001000000001010 ^
b10 e
#159
1X
#160
0X
b100001000000001011 ^
b11 e
#161
1X
#162
0X
b100001000000001100 ^
b011 d
b00 e
#163
1X
#164
0X
b100001000000001101 ^
b01 e
#165
1X
#166
0X
b100001000000001110 ^
b10 e
#167
1X
#168
0X
b100001000000001111 ^
b11 e
#169
1X
#170
0X
b0000000000000001 Z
b000000000000000011 ^
0c
b000 d
#171
b0001 ;
b0000001100000000 C
0F
1X
b0000000000000000 [
#172
0X
b0000000100000000 Z
b000000000000000001 ^
b01 e
#173
b0000000100000000 +
b0000000100000000 C
1X
#174
0X
b0000000001111111 Z
b000000000000000010 ^
b10 e
#175
b1111111 3
b0000001000000000 C
b001011110110011111110001 S
b0101111011001111 T
1X
#176
0X
b0000000000000001 Z
b000000000000000000 ^
b00 e
#177
1#
b0000000000000000 C
1X
#178
0X
0\
0]
1_
1`
1f
#179
b0000000000000001 G
b001 P
1X
b0000000000000001 [
#180
0X
0_
0`
0f
#181
b0001000000000000 D
b010 P
1X
#182
0X
#183
b0010000000000000 E
b011 P
b000011111110000000000000 S
b0001111111000000 T
1X
#184
0X
#185
b00000000000100000000 H
b001 P
b001 Q
b0000001111111000000 R
b000000000000000000000000 S
b0000000000000000 T
1X
#186
0X
#187
b0000000000000000 D
b010 P
1X
#188
0X
#189
b0000000000000000 E
b011 P
1X
#190
0X
#191
b001 P
b010 Q
1X
#192
0X
#193
b010 P
1X
#194
0X
#195
b011 P
1X
#196
0X
#197
b001 P
b011 Q
1X
#198
0X
#199
b010 P
1X
#200
0X
#201
b011 P
1X
#202
0X
#203
b001 P
b100 Q
1X
#204
0X
#205
b010 P
1X
#206
0X
#207
b011 P
1X
#208
0X
#209
b001 P
b101 Q
1X
#210
0X
#211
b010 P
1X
#212
0X
#213
b011 P
1X
#214
0X
#215
b001 P
b110 Q
1X
#216
0X
#217
b010 P
1X
#218
0X
#219
b011 P
1X
#220
0X
#221
b001 P
b111 Q
1X
#222
0X
#223
b010 P
1X
#224
0X
#225
b011 P
1X
#226
0X
#227
b100 P
1X
#228
0X
#229
b000 P
1X
b0000001111111000 a
1b
#230
0X
#231
1X
0b
#232
0X
#233
1X
#234
0X
#235
1X
#236
0X
#237
1X
#238
0X
#239
1X
#240
0X
#241
1X
#242
0X
#243
1X
#244
0X
#245
1X
#246
0X
#247
1X
#248
0X
#249
1X
#250
0X
#251
1X
#252
0X
#253
1X
#254
0X
#255
1X
#256
0X
#257
1X
#258
0X
#259
1X
#260
0X
1_
1`
1f
#261
b001 P
b000 Q
b0000000000000000000 R
1X
#262
0X
0_
0`
0f
#263
b0001000000000001 D
b010 P
1X
#264
0X
#265
b0010000000000000 E
b011 P
b000011111110000000000000 S
b0001111111000000 T
1X
#266
0X
#267
b00000000001000000000 H
b001 P
b001 Q
b0000001111111000000 R
b000000000000000000000000 S
b0000000000000000 T
1X
#268
0X
#269
b0000000000000000 D
b010 P
1X
#270
0X
#271
b0000000000000000 E
b011 P
1X
#272
0X
#273
b001 P
b010 Q
1X
#274
0X
#275
b010 P
1X
#276
0X
#277
b011 P
1X
#278
0X
#279
b001 P
b011 Q
1X
#280
0X
#281
b010 P
1X
#282
0X
#283
b011 P
1X
#284
0X
#285
b001 P
b100 Q
1X
#286
0X
#287
b010 P
1X
#288
0X
#289
b011 P
1X
#290
0X
#291
b001 P
b101 Q
1X
#292
0X
#293
b010 P
1X
#294
0X
#295
b011 P
1X
#296
0X
#297
b001 P
b110 Q
1X
#298
0X
#299
b010 P
1X
#300
0X
#301
b011 P
1X
#302
0X
#303
b001 P
b111 Q
1X
#304
0X
#305
b010 P
1X
#306
0X
#307
b011 P
1X
#308
0X
#309
b100 P
1X
#310
0X
#311
b000 P
1X
1b
#312
0X
#313
1X
0b
#314
0X
#315
1X
#316
0X
#317
1X
#318
0X
#319
1X
#320
0X
#321
1X
#322
0X
#323
1X
#324
0X
#325
1X
#326
0X
#327
1X
#328
0X
#329
1X
#330
0X
#331
1X
#332
0X
#333
1X
#334
0X
#335
1X
#336
0X
#337
1X
#338
0X
#339
1X
#340
0X
#341
1X
#342
0X
1_
1`
1f
#343
b001 P
b000 Q
b0000000000000000000 R
1X
#344
0X
0_
0`
0f
#345
b0001000000000010 D
b010 P
1X
#346
0X
#347
b0010000000000000 E
b011 P
b000011111110000000000000 S
b0001111111000000 T
1X
#348
0X
#349
b00000000001100000000 H
b001 P
b001 Q
b0000001111111000000 R
b000000000000000000000000 S
b0000000000000000 T
1X
#350
0X
#351
b0000000000000000 D
b010 P
1X
#352
0X
#353
b0000000000000000 E
b011 P
1X
#354
0X
#355
b001 P
b010 Q
1X
#356
0X
#357
b010 P
1X
#358
0X
#359
b011 P
1X
#360
0X
#361
b001 P
b011 Q
1X
#362
0X
#363
b010 P
1X
#364
0X
#365
b011 P
1X
#366
0X
#367
b001 P
b100 Q
1X
#368
0X
#369
b010 P
1X
#370
0X
#371
b011 P
1X
#372
0X
#373
b001 P
b101 Q
1X
#374
0X
#375
b010 P
1X
#376
0X
#377
b011 P
1X
#378
0X
#379
b001 P
b110 Q
1X
#380
0X
#381
b010 P
1X
#382
0X
#383
b011 P
1X
#384
0X
#385
b001 P
b111 Q
1X
#386
0X
#387
b010 P
1X
#388
0X
#389
b011 P
1X
#390
0X
#391
b100 P
1X
#392
0X
#393
b000 P
1X
1b
#394
0X
#395
1X
0b
#396
0X
#397
1X
#398
0X
#399
1X
#400
0X
#401
1X
#402
0X
#403
1X
#404
0X
#405
1X
#406
0X
#407
1X
#408
0X
#409
1X
#410
0X
#411
1X
#412
0X
#413
1X
#414
0X
#415
1X
#416
0X
#417
1X
#418
0X
#419
1X
#420
0X
#421
1X
#422
0X
#423
1X
#424
0X
1_
1`
1f
#425
b001 P
b000 Q
b0000000000000000000 R
1X
#426
0X
0_
0`
0f
#427
b0001000000000011 D
b010 P
1X
#428
0X
#429
b0010000000000000 E
b011 P
b000011111110000000000000 S
b0001111111000000 T
1X
#430
0X
#431
b00000000010000000000 H
b001 P
b001 Q
b0000001111111000000 R
b000000000000000000000000 S
b0000000000000000 T
1X
#432
0X
#433
b0000000000000000 D
b010 P
1X
#434
0X
#435
b0000000000000000 E
b011 P
1X
#436
0X
#437
b001 P
b010 Q
1X
#438
0X
#439
b010 P
1X
#440
0X
#441
b011 P
1X
#442
0X
#443
b001 P
b011 Q
1X
#444
0X
#445
b010 P
1X
#446
0X
#447
b011 P
1X
#448
0X
#449
b001 P
b100 Q
1X
#450
0X
#451
b010 P
1X
#452
0X
#453
b011 P
1X
#454
0X
#455
b001 P
b101 Q
1X
#456
0X
#457
b010 P
1X
#458
0X
#459
b011 P
1X
#460
0X
#461
b001 P
b110 Q
1X
#462
0X
#463
b010 P
1X
#464
0X
#465
b011 P
1X
#466
0X
#467
b001 P
b111 Q
1X
#468
0X
#469
b010 P
1X
#470
0X
#471
b011 P
1X
#472
0X
#473
b100 P
1X
#474
0X
#475
b000 P
1X
1b
#476
0X
#477
1X
0b
#478
0X
#479
1X
#480
0X
#481
1X
#482
0X
#483
1X
#484
0X
#485
1X
#486
0X
#487
1X
#488
0X
#489
1X
#490
0X
#491
1X
#492
0X
#493
1X
#494
0X
#495
1X
#496
0X
#497
1X
#498
0X
#499
1X
#500
0X
#501
1X
#502
0X
#503
1X
#504
0X
#505
1X
#506
0X
b0000000000000000 Z
1\
1]
#507
0#
1X
#508
0X
0\
0]
#509
b0000000000000000 G
b00000000000000000000 H
1X
b0000000000000000 [
#510
0X
#511
1X
#512
0X
#513
1X
#514
0X
#515
1X
#516
0X
1\
1]
b000000000000000011 ^
b11 e
#517
b0000 ;
b0000001100000000 C
b0000000000000001 G
1X
b0000000000000001 [
#518
0X
b0000000100000000 Z
b000000000000000001 ^
b01 e
#519
b0000000100000000 C
b0000000100000000 G
1X
b0000000100000000 [
#520
0X
b0000000001111111 Z
b000000000000000010 ^
b10 e
#521
b0000001000000000 C
b0000000001111111 G
1X
b0000000001111111 [
#522
0X
b0000000000000001 Z
b000000000000000000 ^
b00 e
#523
1#
b0000000000000000 C
b0000000000000000 G
1X
b0000000000000000 [
#524
0X
0\
0]
1_
1`
1f
#525
b0000000000000001 G
b001 P
b000 Q
b0000000000000000000 R
1X
b0000000000000001 [
#526
0X
0_
0`
0f
#527
b010 P
1X
#528
0X
#529
b011 P
1X
#530
0X
#531
b00000000000100000000 H
b001 P
b001 Q
1X
#532
0X
#533
b010 P
1X
#534
0X
#535
b011 P
1X
#536
0X
#537
b001 P
b010 Q
1X
#538
0X
#539
b010 P
1X
#540
0X
#541
b011 P
1X
#542
0X
#543
b001 P
b011 Q
1X
#544
0X
#545
b010 P
1X
#546
0X
#547
b011 P
1X
#548
0X
#549
b001 P
b100 Q
1X
#550
0X
#551
b010 P
1X
#552
0X
#553
b011 P
1X
#554
0X
#555
b001 P
b101 Q
1X
#556
0X
#557
b010 P
1X
#558
0X
#559
b011 P
1X
#560
0X
#561
b001 P
b110 Q
1X
#562
0X
#563
b010 P
1X
#564
0X
#565
b011 P
1X
#566
0X
#567
b001 P
b111 Q
1X
#568
0X
#569
b010 P
1X
#570
0X
#571
b011 P
1X
#572
0X
#573
b100 P
1X
#574
0X
#575
b000 P
1X
b0000000000000000 a
1b
#576
0X
#577
1X
0b
#578
0X
#579
1X
#580
0X
#581
1X
#582
0X
#583
1X
#584
0X
#585
1X
#586
0X
#587
1X
#588
0X
#589
1X
#590
0X
#591
1X
#592
0X
#593
1X
#594
0X
#595
1X
#596
0X
#597
1X
#598
0X
#599
1X
#600
0X
#601
1X
#602
0X
#603
1X
#604
0X
#605
1X
#606
0X
1_
1`
1f
#607
b001 P
b000 Q
1X
#608
0X
0_
0`
0f
#609
b0000000000000001 D
b010 P
1X
#610
0X
#611
b0000000100000000 E
b011 P
b000000000111111100000000 S
b0000000011111110 T
1X
#612
0X
#613
b00000000001000000000 H
b001 P
b001 Q
b0000000000011111110 R
b000000000000000000000000 S
b0000000000000000 T
1X
#614
0X
#615
b0000000000000000 D
b010 P
1X
#616
0X
#617
b0000000000000000 E
b011 P
1X
#618
0X
#619
b001 P
b010 Q
1X
#620
0X
#621
b010 P
1X
#622
0X
#623
b011 P
1X
#624
0X
#625
b001 P
b011 Q
1X
#626
0X
#627
b010 P
1X
#628
0X
#629
b011 P
1X
#630
0X
#631
b001 P
b100 Q
1X
#632
0X
#633
b010 P
1X
#634
0X
#635
b011 P
1X
#636
0X
#637
b001 P
b101 Q
1X
#638
0X
#639
b010 P
1X
#640
0X
#641
b011 P
1X
#642
0X
#643
b001 P
b110 Q
1X
#644
0X
#645
b010 P
1X
#646
0X
#647
b011 P
1X
#648
0X
#649
b001 P
b111 Q
1X
#650
0X
#651
b010 P
1X
#652
0X
#653
b011 P
1X
#654
0X
#655
b100 P
1X
#656
0X
#657
b000 P
1X
b0000000000011111 a
1b
#658
0X
#659
1X
0b
#660
0X
#661
1X
#662
0X
#663
1X
#664
0X
#665
1X
#666
0X
#667
1X
#668
0X
#669
1X
#670
0X
#671
1X
#672
0X
#673
1X
#674
0X
#675
1X
#676
0X
#677
1X
#678
0X
#679
1X
#680
0X
#681
1X
#682
0X
#683
1X
#684
0X
#685
1X
#686
0X
#687
1X
#688
0X
1_
1`
1f
#689
b001 P
b000 Q
b0000000000000000000 R
1X
#690
0X
0_
0`
0f
#691
b0000000000000010 D
b010 P
1X
#692
0X
#693
b0000001000000000 E
b011 P
b000000001111111000000000 S
b0000000111111100 T
1X
#694
0X
#695
b00000000001100000000 H
b001 P
b001 Q
b0000000000111111100 R
b000000000000000000000000 S
b0000000000000000 T
1X
#696
0X
#697
b0000000000000000 D
b010 P
1X
#698
0X
#699
b0000000000000000 E
b011 P
1X
#700
0X
#701
b001 P
b010 Q
1X
#702
0X
#703
b010 P
1X
#704
0X
#705
b011 P
1X
#706
0X
#707
b001 P
b011 Q
1X
#708
0X
#709
b010 P
1X
#710
0X
#711
b011 P
1X
#712
0X
#713
b001 P
b100 Q
1X
#714
0X
#715
b010 P
1X
#716
0X
#717
b011 P
1X
#718
0X
#719
b001 P
b101 Q
1X
#720
0X
#721
b010 P
1X
#722
0X
#723
b011 P
1X
#724
0X
#725
b001 P
b110 Q
1X
#726
0X
#727
b010 P
1X
#728
0X
#729
b011 P
1X
#730
0X
#731
b001 P
b111 Q
1X
#732
0X
#733
b010 P
1X
#734
0X
#735
b011 P
1X
#736
0X
#737
b100 P
1X
#738
0X
#739
b000 P
1X
b0000000000111111 a
1b
#740
0X
#741
1X
0b
#742
0X
#743
1X
#744
0X
#745
1X
#746
0X
#747
1X
#748
0X
#749
1X
#750
0X
#751
1X
#752
0X
#753
1X
#754
0X
#755
1X
#756
0X
#757
1X
#758
0X
#759
1X
#760
0X
#761
1X
#762
0X
#763
1X
#764
0X
#765
1X
#766
0X
#767
1X
#768
0X
#769
1X
#770
0X
1_
1`
1f
#771
b001 P
b000 Q
b0000000000000000000 R
1X
#772
0X
0_
0`
0f
#773
b0000000000000011 D
b010 P
1X
#774
0X
#775
b0000001100000000 E
b011 P
b000000010111110100000000 S
b0000001011111010 T
1X
#776
0X
#777
b00000000010000000000 H
b001 P
b001 Q
b0000000001011111010 R
b000000000000000000000000 S
b0000000000000000 T
1X
#778
0X
#779
b0000000000000000 D
b010 P
1X
#780
0X
#781
b0000000000000000 E
b011 P
1X
#782
0X
#783
b001 P
b010 Q
1X
#784
0X
#785
b010 P
1X
#786
0X
#787
b011 P
1X
#788
0X
#789
b001 P
b011 Q
1X
#790
0X
#791
b010 P
1X
#792
0X
#793
b011 P
1X
#794
0X
#795
b001 P
b100 Q
1X
#796
0X
#797
b010 P
1X
#798
0X
#799
b011 P
1X
#800
0X
#801
b001 P
b101 Q
1X
#802
0X
#803
b010 P
1X
#804
0X
#805
b011 P
1X
#806
0X
#807
b001 P
b110 Q
1X
#808
0X
#809
b010 P
1X
#810
0X
#811
b011 P
1X
#812
0X
#813
b001 P
b111 Q
1X
#814
0X
#815
b010 P
1X
#816
0X
#817
b011 P
1X
#818
0X
#819
b100 P
1X
#820
0X
#821
b000 P
1X
b0000000001011111 a
1b
#822
0X
#823
1X
0b
#824
0X
#825
1X
#826
0X
#827
1X
#828
0X
#829
1X
#830
0X
#831
1X
#832
0X
#833
1X
#834
0X
#835
1X
#836
0X
#837
1X
#838
0X
#839
1X
#840
0X
#841
1X
#842
0X
#843
1X
#844
0X
#845
1X
#846
0X
#847
1X
#848
0X
#849
1X
#850
0X
#851
1X
#852
0X
1_
1`
1f
#853
b001 P
b000 Q
b0000000000000000000 R
1X
#854
0X
0_
0`
0f
#855
b0000000000000100 D
b010 P
1X
#856
0X
#857
b0000010000000000 E
b011 P
b000000011111110000000000 S
b0000001111111000 T
1X
#858
0X
#859
b00000000010100000000 H
b001 P
b001 Q
b0000000001111111000 R
b000000000000000000000000 S
b0000000000000000 T
1X
#860
0X
#861
b0000000000000000 D
b010 P
1X
#862
0X
#863
b0000000000000000 E
b011 P
1X
#864
0X
#865
b001 P
b010 Q
1X
#866
0X
#867
b010 P
1X
#868
0X
#869
b011 P
1X
#870
0X
#871
b001 P
b011 Q
1X
#872
0X
#873
b010 P
1X
#874
0X
#875
b011 P
1X
#876
0X
#877
b001 P
b100 Q
1X
#878
0X
#879
b010 P
1X
#880
0X
#881
b011 P
1X
#882
0X
#883
b001 P
b101 Q
1X
#884
0X
#885
b010 P
1X
#886
0X
#887
b011 P
1X
#888
0X
#889
b001 P
b110 Q
1X
#890
0X
#891
b010 P
1X
#892
0X
#893
b011 P
1X
#894
0X
#895
b001 P
b111 Q
1X
#896
0X
#897
b010 P
1X
#898
0X
#899
b011 P
1X
#900
0X
#901
b100 P
1X
#902
0X
#903
b000 P
1X
b0000000001111111 a
1b
#904
0X
#905
1X
0b
#906
0X
#907
1X
#908
0X
#909
1X
#910
0X
#911
1X
#912
0X
#913
1X
#914
0X
#915
1X
#916
0X
#917
1X
#918
0X
#919
1X
#920
0X
#921
1X
#922
0X
#923
1X
#924
0X
#925
1X
#926
0X
#927
1X
#928
0X
#929
1X
#930
0X
#931
1X
#932
0X
#933
1X
#934
0X
1_
1`
1f
#935
b001 P
b000 Q
b0000000000000000000 R
1X
#936
0X
0_
0`
0f
#937
b0000000000000101 D
b010 P
1X
#938
0X
#939
b0000010100000000 E
b011 P
b000000100111101100000000 S
b0000010011110110 T
1X
#940
0X
#941
b00000000011000000000 H
b001 P
b001 Q
b0000000010011110110 R
b000000000000000000000000 S
b0000000000000000 T
1X
#942
0X
#943
b0000000000000000 D
b010 P
1X
#944
0X
#945
b0000000000000000 E
b011 P
1X
#946
0X
#947
b001 P
b010 Q
1X
#948
0X
#949
b010 P
1X
#950
0X
#951
b011 P
1X
#952
0X
#953
b001 P
b011 Q
1X
#954
0X
#955
b010 P
1X
#956
0X
#957
b011 P
1X
#958
0X
#959
b001 P
b100 Q
1X
#960
0X
#961
b010 P
1X
#962
0X
#963
b011 P
1X
#964
0X
#965
b001 P
b101 Q
1X
#966
0X
#967
b010 P
1X
#968
0X
#969
b011 P
1X
#970
0X
#971
b001 P
b110 Q
1X
#972
0X
#973
b010 P
1X
#974
0X
#975
b011 P
1X
#976
0X
#977
b001 P
b111 Q
1X
#978
0X
#979
b010 P
1X
#980
0X
#981
b011 P
1X
#982
0X
#983
b100 P
1X
#984
0X
#985
b000 P
1X
b0000000010011110 a
1b
#986
0X
#987
1X
0b
#988
0X
#989
1X
#990
0X
#991
1X
#992
0X
#993
1X
#994
0X
#995
1X
#996
0X
#997
1X
#998
0X
#999
1X
#1000
0X
#1001
1X
#1002
0X
#1003
1X
#1004
0X
#1005
1X
#1006
0X
#1007
1X
#1008
0X
#1009
1X
#1010
0X
#1011
1X
#1012
0X
#1013
1X
#1014
0X
#1015
1X
#1016
0X
1_
1`
1f
#1017
b001 P
b000 Q
b0000000000000000000 R
1X
#1018
0X
0_
0`
0f
#1019
b0000000000000110 D
b010 P
1X
#1020
0X
