hw/testbenches/dds_playback/waveform.vcd
$version Generated by VerilatedVcd $end
$timescale 1ps $end
 $scope module TOP $end
  $var wire 1 Y clk $end
  $var wire 1 Z reset $end
  $var wire 16 [ writedata [15:0] $end
  $var wire 16 \ readdata [15:0] $end
  $var wire 1 ] write $end
  $var wire 1 ^ chipselect $end
  $var wire 18 _ address [17:0] $end
  $var wire 1 ` ready_left $end
  $var wire 1 a ready_right $end
  $var wire 16 b sample [15:0] $end
  $var wire 1 c sample_valid $end
  $scope module wave_table_synth $end
   $var wire 1 Y clk $end
   $var wire 1 Z reset $end
   $var wire 16 [ writedata [15:0] $end
   $var wire 16 \ readdata [15:0] $end
   $var wire 1 ] write $end
   $var wire 1 ^ chipselect $end
   $var wire 18 _ address [17:0] $end
   $var wire 1 ` ready_left $end
   $var wire 1 a ready_right $end
   $var wire 16 b sample [15:0] $end
   $var wire 1 c sample_valid $end
   $var wire 32 h NUM_VOICES [31:0] $end
   $var wire 32 i WAVETABLE_DEPTH [31:0] $end
   $var wire 1 d is_wavetable $end
   $var wire 3 e voice_sel [2:0] $end
   $var wire 2 f reg_sel [1:0] $end
   $var wire 1 # note_on_reg[0] $end
   $var wire 1 $ note_on_reg[1] $end
   $var wire 1 % note_on_reg[2] $end
   $var wire 1 & note_on_reg[3] $end
   $var wire 1 ' note_on_reg[4] $end
   $var wire 1 ( note_on_reg[5] $end
   $var wire 1 ) note_on_reg[6] $end
   $var wire 1 * note_on_reg[7] $end
   $var wire 16 + step_size_reg[0] [15:0] $end
   $var wire 16 , step_size_reg[1] [15:0] $end
   $var wire 16 - step_size_reg[2] [15:0] $end
   $var wire 16 . step_size_reg[3] [15:0] $end
   $var wire 16 / step_size_reg[4] [15:0] $end
   $var wire 16 0 step_size_reg[5] [15:0] $end
   $var wire 16 1 step_size_reg[6] [15:0] $end
   $var wire 16 2 step_size_reg[7] [15:0] $end
   $var wire 7 3 velocity_reg[0] [6:0] $end
   $var wire 7 4 velocity_reg[1] [6:0] $end
   $var wire 7 5 velocity_reg[2] [6:0] $end
   $var wire 7 6 velocity_reg[3] [6:0] $end
   $var wire 7 7 velocity_reg[4] [6:0] $end
   $var wire 7 8 velocity_reg[5] [6:0] $end
   $var wire 7 9 velocity_reg[6] [6:0] $end
   $var wire 7 : velocity_reg[7] [6:0] $end
   $var wire 5 ; slot_select_reg[0] [4:0] $end
   $var wire 5 < slot_select_reg[1] [4:0] $end
   $var wire 5 = slot_select_reg[2] [4:0] $end
   $var wire 5 > slot_select_reg[3] [4:0] $end
   $var wire 5 ? slot_select_reg[4] [4:0] $end
   $var wire 5 @ slot_select_reg[5] [4:0] $end
   $var wire 5 A slot_select_reg[6] [4:0] $end
   $var wire 5 B slot_select_reg[7] [4:0] $end
   $var wire 16 C avalon_rdata [15:0] $end
   $var wire 17 D dds_read_addr [16:0] $end
   $var wire 16 E dds_rdata [15:0] $end
   $var wire 1 F is_wavetable_r $end
   $var wire 16 G ctrl_rdata [15:0] $end
   $var wire 20 H phase_acc[0] [19:0] $end
   $var wire 20 I phase_acc[1] [19:0] $end
   $var wire 20 J phase_acc[2] [19:0] $end
   $var wire 20 K phase_acc[3] [19:0] $end
   $var wire 20 L phase_acc[4] [19:0] $end
   $var wire 20 M phase_acc[5] [19:0] $end
   $var wire 20 N phase_acc[6] [19:0] $end
   $var wire 20 O phase_acc[7] [19:0] $end
   $var wire 1 P prev_ready $end
   $var wire 1 g sample_tick $end
   $var wire 3 Q state [2:0] $end
   $var wire 3 R voice_idx [2:0] $end
   $var wire 19 S mix_acc [18:0] $end
   $var wire 24 T voice_product [23:0] $end
   $var wire 16 U voice_scaled [15:0] $end
   $scope module unnamedblk1 $end
    $var wire 32 V i [31:0] $end
   $upscope $end
   $scope module unnamedblk2 $end
    $var wire 32 W i [31:0] $end
   $upscope $end
   $scope module unnamedblk3 $end
    $var wire 32 X i [31:0] $end
   $upscope $end
  $upscope $end
 $upscope $end
$enddefinitions $end


#0
1#
1$
1%
1&
1'
1(
1)
1*
b1110100011100000 +
b1110100011100000 ,
b1110100011100000 -
b1110100011100000 .
b1110100011100000 /
b1110100011100000 0
b1110100011100000 1
b1110100011100000 2
b1101000 3
b1101000 4
b1101000 5
b1101000 6
b1101000 7
b1101000 8
b1101000 9
b1101000 :
b01111 ;
b01111 <
b01111 =
b01111 >
b01111 ?
b01111 @
b01111 A
b01111 B
b1111100010100110 C
b11100101111100011 D
b1000101001010011 E
1F
b0100100001000011 G
b10000000100011110101 H
b10000000100011110101 I
b10000000100011110101 J
b10000000100011110101 K
b10000000100011110101 L
b10000000100011110101 M
b10000000100011110101 N
b10000000100011110101 O
1P
b111 Q
b101 R
b1100011100110110111 S
b110100000011000110111000 T
b1010000001100011 U
b00000000000000000000000000000000 V
b00000000000000000000000000000000 W
b00000000000000000000000000000000 X
0Y
1Z
b0000000000000000 [
b1111100010100110 \
0]
0^
b000000000000000000 _
0`
0a
b1011000000101111 b
1c
0d
b000 e
b00 f
0g
b00000000000000000000000000001000 h
b00000000000000100000000000000000 i
#1
0#
0$
0%
0&
0'
0(
0)
0*
b0000000000000000 +
b0000000000000000 ,
b0000000000000000 -
b0000000000000000 .
b0000000000000000 /
b0000000000000000 0
b0000000000000000 1
b0000000000000000 2
b0000000 3
b0000000 4
b0000000 5
b0000000 6
b0000000 7
b0000000 8
b0000000 9
b0000000 :
b00000 ;
b00000 <
b00000 =
b00000 >
b00000 ?
b00000 @
b00000 A
b00000 B
b0100110001011001 C
b0100110001011001 E
0F
b0000000000000001 G
b00000000000000000000 H
b00000000000000000000 I
b00000000000000000000 J
b00000000000000000000 K
b00000000000000000000 L
b00000000000000000000 M
b00000000000000000000 N
b00000000000000000000 O
0P
b000 Q
b000 R
b0000000000000000000 S
b000000000000000000000000 T
b0000000000000000 U
b00000000000000000000000000001000 V
b00000000000000000000000000001000 W
1Y
b0000000000000001 \
b0000000000000000 b
0c
#2
0Y
#3
b0000000000000000 G
1Y
b0000000000000000 \
#4
0Y
#5
1Y
#6
0Y
#7
1Y
#8
0Y
0Z
#9
b00000000000000000000000000001000 X
1Y
#10
0Y
1]
1^
b100000000000000000 _
1d
#11
1F
1Y
b0100110001011001 \
#12
0Y
b0000000100000000 [
b100000000000000001 _
b01 f
#13
1Y
#14
0Y
b0000001000000000 [
b100000000000000010 _
b10 f
#15
1Y
#16
0Y
b0000001100000000 [
b100000000000000011 _
b11 f
#17
1Y
#18
0Y
b0000010000000000 [
b100000000000000100 _
b001 e
b00 f
#19
1Y
#20
0Y
b0000010100000000 [
b100000000000000101 _
b01 f
#21
1Y
#22
0Y
b0000011000000000 [
b100000000000000110 _
b10 f
#23
1Y
#24
0Y
b0000011100000000 [
b100000000000000111 _
b11 f
#25
1Y
#26
0Y
b0000100000000000 [
b100000000000001000 _
b010 e
b00 f
#27
1Y
#28
0Y
b0000100100000000 [
b100000000000001001 _
b01 f
#29
1Y
#30
0Y
b0000101000000000 [
b100000000000001010 _
b10 f
#31
1Y
#32
0Y
b0000101100000000 [
b100000000000001011 _
b11 f
#33
1Y
#34
0Y
b0000110000000000 [
b100000000000001100 _
b011 e
b00 f
#35
1Y
#36
0Y
b0000110100000000 [
b100000000000001101 _
b01 f
#37
1Y
#38
0Y
b0000111000000000 [
b100000000000001110 _
b10 f
#39
1Y
#40
0Y
b0000111100000000 [
b100000000000001111 _
b11 f
#41
1Y
#42
0Y
b0001000000000000 [
b100000000000010000 _
b100 e
b00 f
#43
1Y
#44
0Y
b0001000100000000 [
b100000000000010001 _
b01 f
#45
1Y
#46
0Y
b0001001000000000 [
b100000000000010010 _
b10 f
#47
1Y
#48
0Y
b0001001100000000 [
b100000000000010011 _
b11 f
#49
1Y
#50
0Y
b0001010000000000 [
b100000000000010100 _
b101 e
b00 f
#51
1Y
#52
0Y
b0001010100000000 [
b100000000000010101 _
b01 f
#53
1Y
#54
0Y
b0001011000000000 [
b100000000000010110 _
b10 f
#55
1Y
#56
0Y
b0001011100000000 [
b100000000000010111 _
b11 f
#57
1Y
#58
0Y
b0001100000000000 [
b100000000000011000 _
b110 e
b00 f
#59
1Y
#60
0Y
b0001100100000000 [
b100000000000011001 _
b01 f
#61
1Y
#62
0Y
b0001101000000000 [
b100000000000011010 _
b10 f
#63
1Y
#64
0Y
b0001101100000000 [
b100000000000011011 _
b11 f
#65
1Y
#66
0Y
b0001110000000000 [
b100000000000011100 _
b111 e
b00 f
#67
1Y
#68
0Y
b0001110100000000 [
b100000000000011101 _
b01 f
#69
1Y
#70
0Y
b0001111000000000 [
b100000000000011110 _
b10 f
#71
1Y
#72
0Y
b0001111100000000 [
b100000000000011111 _
b11 f
#73
1Y
#74
0Y
b0010000000000000 [
b100000000000100000 _
b000 e
b00 f
#75
1Y
#76
0Y
b0010000100000000 [
b100000000000100001 _
b01 f
#77
1Y
#78
0Y
b0010001000000000 [
b100000000000100010 _
b10 f
#79
1Y
#80
0Y
b0010001100000000 [
b100000000000100011 _
b11 f
#81
1Y
#82
0Y
b0010010000000000 [
b100000000000100100 _
b001 e
b00 f
#83
1Y
#84
0Y
b0010010100000000 [
b100000000000100101 _
b01 f
#85
1Y
#86
0Y
b0010011000000000 [
b100000000000100110 _
b10 f
#87
1Y
#88
0Y
b0010011100000000 [
b100000000000100111 _
b11 f
#89
1Y
#90
0Y
b0010100000000000 [
b100000000000101000 _
b010 e
b00 f
#91
1Y
#92
0Y
b0010100100000000 [
b100000000000101001 _
b01 f
#93
1Y
#94
0Y
b0010101000000000 [
b100000000000101010 _
b10 f
#95
1Y
#96
0Y
b0010101100000000 [
b100000000000101011 _
b11 f
#97
1Y
#98
0Y
b0010110000000000 [
b100000000000101100 _
b011 e
b00 f
#99
1Y
#100
0Y
b0010110100000000 [
b100000000000101101 _
b01 f
#101
1Y
#102
0Y
b0010111000000000 [
b100000000000101110 _
b10 f
#103
1Y
#104
0Y
b0010111100000000 [
b100000000000101111 _
b11 f
#105
1Y
#106
0Y
b0011000000000000 [
b100000000000110000 _
b100 e
b00 f
#107
1Y
#108
0Y
b0011000100000000 [
b100000000000110001 _
b01 f
#109
1Y
#110
0Y
b0011001000000000 [
b100000000000110010 _
b10 f
#111
1Y
#112
0Y
b0011001100000000 [
b100000000000110011 _
b11 f
#113
1Y
#114
0Y
b0011010000000000 [
b100000000000110100 _
b101 e
b00 f
#115
1Y
#116
0Y
b0011010100000000 [
b100000000000110101 _
b01 f
#117
1Y
#118
0Y
b0011011000000000 [
b100000000000110110 _
b10 f
#119
1Y
#120
0Y
b0011011100000000 [
b100000000000110111 _
b11 f
#121
1Y
#122
0Y
b0011100000000000 [
b100000000000111000 _
b110 e
b00 f
#123
1Y
#124
0Y
b0011100100000000 [
b100000000000111001 _
b01 f
#125
1Y
#126
0Y
b0011101000000000 [
b100000000000111010 _
b10 f
#127
1Y
#128
0Y
b0011101100000000 [
b100000000000111011 _
b11 f
#129
1Y
#130
0Y
b0011110000000000 [
b100000000000111100 _
b111 e
b00 f
#131
1Y
#132
0Y
b0011110100000000 [
b100000000000111101 _
b01 f
#133
1Y
#134
0Y
b0011111000000000 [
b100000000000111110 _
b10 f
#135
1Y
#136
0Y
b0011111100000000 [
b100000000000111111 _
b11 f
#137
1Y
#138
0Y
b0010000000000000 [
b100001000000000000 _
b000 e
b00 f
#139
1Y
#140
0Y
b100001000000000001 _
b01 f
#141
1Y
#142
0Y
b100001000000000010 _
b10 f
#143
1Y
#144
0Y
b100001000000000011 _
b11 f
#145
1Y
#146
0Y
b100001000000000100 _
b001 e
b00 f
#147
1Y
#148
0Y
b100001000000000101 _
b01 f
#149
1Y
#150
0Y
b100001000000000110 _
b10 f
#151
1Y
#152
0Y
b100001000000000111 _
b11 f
#153
1Y
#154
0Y
b100001000000001000 _
b010 e
b00 f
#155
1Y
#156
0Y
b100001000000001001 _
b01 f
#157
1Y
#158
0Y
b100001000000001010 _
b10 f
#159
1Y
#160
0Y
b100001000000001011 _
b11 f
#161
1Y
#162
0Y
b100001000000001100 _
b011 e
b00 f
#163
1Y
#164
0Y
b100001000000001101 _
b01 f
#165
1Y
#166
0Y
b100001000000001110 _
b10 f
#167
1Y
#168
0Y
b100001000000001111 _
b11 f
#169
1Y
#170
0Y
b0000000000000001 [
b000000000000000011 _
0d
b000 e
#171
b00001 ;
b0000001100000000 C
0F
1Y
b0000000000000000 \
#172
0Y
b0000000100000000 [
b000000000000000001 _
b01 f
#173
b0000000100000000 +
b0000000100000000 C
1Y
#174
0Y
b0000000001111111 [
b000000000000000010 _
b10 f
#175
b1111111 3
b0000001000000000 C
b001001011110000000100111 T
b0100101111000000 U
1Y
#176
0Y
b0000000000000001 [
b000000000000000000 _
b00 f
#177
1#
b0000000000000000 C
1Y
#178
0Y
0]
0^
1`
1a
1g
#179
b0000000000000001 G
1P
b001 Q
1Y
b0000000000000001 \
0g
#180
0Y
0`
0a
#181
b00001000000000000 D
0P
b010 Q
1Y
#182
0Y
#183
b0010000000000000 E
b011 Q
b000011111110000000000000 T
b0001111111000000 U
1Y
#184
0Y
#185
b00000000000100000000 H
b001 Q
b001 R
b0000001111111000000 S
b000000000000000000000000 T
b0000000000000000 U
1Y
#186
0Y
#187
b00000000000000000 D
b010 Q
1Y
#188
0Y
#189
b0000000000000000 E
b011 Q
1Y
#190
0Y
#191
b001 Q
b010 R
1Y
#192
0Y
#193
b010 Q
1Y
#194
0Y
#195
b011 Q
1Y
#196
0Y
#197
b001 Q
b011 R
1Y
#198
0Y
#199
b010 Q
1Y
#200
0Y
#201
b011 Q
1Y
#202
0Y
#203
b001 Q
b100 R
1Y
#204
0Y
#205
b010 Q
1Y
#206
0Y
#207
b011 Q
1Y
#208
0Y
#209
b001 Q
b101 R
1Y
#210
0Y
#211
b010 Q
1Y
#212
0Y
#213
b011 Q
1Y
#214
0Y
#215
b001 Q
b110 R
1Y
#216
0Y
#217
b010 Q
1Y
#218
0Y
#219
b011 Q
1Y
#220
0Y
#221
b001 Q
b111 R
1Y
#222
0Y
#223
b010 Q
1Y
#224
0Y
#225
b011 Q
1Y
#226
0Y
#227
b100 Q
1Y
#228
0Y
#229
b000 Q
1Y
b0000001111111000 b
1c
#230
0Y
#231
1Y
0c
#232
0Y
#233
1Y
#234
0Y
#235
1Y
#236
0Y
#237
1Y
#238
0Y
#239
1Y
#240
0Y
#241
1Y
#242
0Y
#243
1Y
#244
0Y
#245
1Y
#246
0Y
#247
1Y
#248
0Y
#249
1Y
#250
0Y
#251
1Y
#252
0Y
#253
1Y
#254
0Y
#255
1Y
#256
0Y
#257
1Y
#258
0Y
#259
1Y
#260
0Y
1`
1a
1g
#261
1P
b001 Q
b000 R
b0000000000000000000 S
1Y
0g
#262
0Y
0`
0a
#263
b00001000000000001 D
0P
b010 Q
1Y
#264
0Y
#265
b0010000000000000 E
b011 Q
b000011111110000000000000 T
b0001111111000000 U
1Y
#266
0Y
#267
b00000000001000000000 H
b001 Q
b001 R
b0000001111111000000 S
b000000000000000000000000 T
b0000000000000000 U
1Y
#268
0Y
#269
b00000000000000000 D
b010 Q
1Y
#270
0Y
#271
b0000000000000000 E
b011 Q
1Y
#272
0Y
#273
b001 Q
b010 R
1Y
#274
0Y
#275
b010 Q
1Y
#276
0Y
#277
b011 Q
1Y
#278
0Y
#279
b001 Q
b011 R
1Y
#280
0Y
#281
b010 Q
1Y
#282
0Y
#283
b011 Q
1Y
#284
0Y
#285
b001 Q
b100 R
1Y
#286
0Y
#287
b010 Q
1Y
#288
0Y
#289
b011 Q
1Y
#290
0Y
#291
b001 Q
b101 R
1Y
#292
0Y
#293
b010 Q
1Y
#294
0Y
#295
b011 Q
1Y
#296
0Y
#297
b001 Q
b110 R
1Y
#298
0Y
#299
b010 Q
1Y
#300
0Y
#301
b011 Q
1Y
#302
0Y
#303
b001 Q
b111 R
1Y
#304
0Y
#305
b010 Q
1Y
#306
0Y
#307
b011 Q
1Y
#308
0Y
#309
b100 Q
1Y
#310
0Y
#311
b000 Q
1Y
1c
#312
0Y
#313
1Y
0c
#314
0Y
#315
1Y
#316
0Y
#317
1Y
#318
0Y
#319
1Y
#320
0Y
#321
1Y
#322
0Y
#323
1Y
#324
0Y
#325
1Y
#326
0Y
#327
1Y
#328
0Y
#329
1Y
#330
0Y
#331
1Y
#332
0Y
#333
1Y
#334
0Y
#335
1Y
#336
0Y
#337
1Y
#338
0Y
#339
1Y
#340
0Y
#341
1Y
#342
0Y
1`
1a
1g
#343
1P
b001 Q
b000 R
b0000000000000000000 S
1Y
0g
#344
0Y
0`
0a
#345
b00001000000000010 D
0P
b010 Q
1Y
#346
0Y
#347
b0010000000000000 E
b011 Q
b000011111110000000000000 T
b0001111111000000 U
1Y
#348
0Y
#349
b00000000001100000000 H
b001 Q
b001 R
b0000001111111000000 S
b000000000000000000000000 T
b0000000000000000 U
1Y
#350
0Y
#351
b00000000000000000 D
b010 Q
1Y
#352
0Y
#353
b0000000000000000 E
b011 Q
1Y
#354
0Y
#355
b001 Q
b010 R
1Y
#356
0Y
#357
b010 Q
1Y
#358
0Y
#359
b011 Q
1Y
#360
0Y
#361
b001 Q
b011 R
1Y
#362
0Y
#363
b010 Q
1Y
#364
0Y
#365
b011 Q
1Y
#366
0Y
#367
b001 Q
b100 R
1Y
#368
0Y
#369
b010 Q
1Y
#370
0Y
#371
b011 Q
1Y
#372
0Y
#373
b001 Q
b101 R
1Y
#374
0Y
#375
b010 Q
1Y
#376
0Y
#377
b011 Q
1Y
#378
0Y
#379
b001 Q
b110 R
1Y
#380
0Y
#381
b010 Q
1Y
#382
0Y
#383
b011 Q
1Y
#384
0Y
#385
b001 Q
b111 R
1Y
#386
0Y
#387
b010 Q
1Y
#388
0Y
#389
b011 Q
1Y
#390
0Y
#391
b100 Q
1Y
#392
0Y
#393
b000 Q
1Y
1c
#394
0Y
#395
1Y
0c
#396
0Y
#397
1Y
#398
0Y
#399
1Y
#400
0Y
#401
1Y
#402
0Y
#403
1Y
#404
0Y
#405
1Y
#406
0Y
#407
1Y
#408
0Y
#409
1Y
#410
0Y
#411
1Y
#412
0Y
#413
1Y
#414
0Y
#415
1Y
#416
0Y
#417
1Y
#418
0Y
#419
1Y
#420
0Y
#421
1Y
#422
0Y
#423
1Y
#424
0Y
1`
1a
1g
#425
1P
b001 Q
b000 R
b0000000000000000000 S
1Y
0g
#426
0Y
0`
0a
#427
b00001000000000011 D
0P
b010 Q
1Y
#428
0Y
#429
b0010000000000000 E
b011 Q
b000011111110000000000000 T
b0001111111000000 U
1Y
#430
0Y
#431
b00000000010000000000 H
b001 Q
b001 R
b0000001111111000000 S
b000000000000000000000000 T
b0000000000000000 U
1Y
#432
0Y
#433
b00000000000000000 D
b010 Q
1Y
#434
0Y
#435
b0000000000000000 E
b011 Q
1Y
#436
0Y
#437
b001 Q
b010 R
1Y
#438
0Y
#439
b010 Q
1Y
#440
0Y
#441
b011 Q
1Y
#442
0Y
#443
b001 Q
b011 R
1Y
#444
0Y
#445
b010 Q
1Y
#446
0Y
#447
b011 Q
1Y
#448
0Y
#449
b001 Q
b100 R
1Y
#450
0Y
#451
b010 Q
1Y
#452
0Y
#453
b011 Q
1Y
#454
0Y
#455
b001 Q
b101 R
1Y
#456
0Y
#457
b010 Q
1Y
#458
0Y
#459
b011 Q
1Y
#460
0Y
#461
b001 Q
b110 R
1Y
#462
0Y
#463
b010 Q
1Y
#464
0Y
#465
b011 Q
1Y
#466
0Y
#467
b001 Q
b111 R
1Y
#468
0Y
#469
b010 Q
1Y
#470
0Y
#471
b011 Q
1Y
#472
0Y
#473
b100 Q
1Y
#474
0Y
#475
b000 Q
1Y
1c
#476
0Y
#477
1Y
0c
#478
0Y
#479
1Y
#480
0Y
#481
1Y
#482
0Y
#483
1Y
#484
0Y
#485
1Y
#486
0Y
#487
1Y
#488
0Y
#489
1Y
#490
0Y
#491
1Y
#492
0Y
#493
1Y
#494
0Y
#495
1Y
#496
0Y
#497
1Y
#498
0Y
#499
1Y
#500
0Y
#501
1Y
#502
0Y
#503
1Y
#504
0Y
#505
1Y
#506
0Y
b0000000000000000 [
1]
1^
#507
0#
1Y
#508
0Y
0]
0^
#509
b0000000000000000 G
b00000000000000000000 H
1Y
b0000000000000000 \
#510
0Y
#511
1Y
#512
0Y
#513
1Y
#514
0Y
#515
1Y
#516
0Y
1]
1^
b000000000000000011 _
b11 f
#517
b00000 ;
b0000001100000000 C
b0000000000000001 G
1Y
b0000000000000001 \
#518
0Y
b0000000100000000 [
b000000000000000001 _
b01 f
#519
b0000000100000000 C
b0000000100000000 G
1Y
b0000000100000000 \
#520
0Y
b0000000001111111 [
b000000000000000010 _
b10 f
#521
b0000001000000000 C
b0000000001111111 G
1Y
b0000000001111111 \
#522
0Y
b0000000000000001 [
b000000000000000000 _
b00 f
#523
1#
b0000000000000000 C
b0000000000000000 G
1Y
b0000000000000000 \
#524
0Y
0]
0^
1`
1a
1g
#525
b0000000000000001 G
1P
b001 Q
b000 R
b0000000000000000000 S
1Y
b0000000000000001 \
0g
#526
0Y
0`
0a
#527
0P
b010 Q
1Y
#528
0Y
#529
b011 Q
1Y
#530
0Y
#531
b00000000000100000000 H
b001 Q
b001 R
1Y
#532
0Y
#533
b010 Q
1Y
#534
0Y
#535
b011 Q
1Y
#536
0Y
#537
b001 Q
b010 R
1Y
#538
0Y
#539
b010 Q
1Y
#540
0Y
#541
b011 Q
1Y
#542
0Y
#543
b001 Q
b011 R
1Y
#544
0Y
#545
b010 Q
1Y
#546
0Y
#547
b011 Q
1Y
#548
0Y
#549
b001 Q
b100 R
1Y
#550
0Y
#551
b010 Q
1Y
#552
0Y
#553
b011 Q
1Y
#554
0Y
#555
b001 Q
b101 R
1Y
#556
0Y
#557
b010 Q
1Y
#558
0Y
#559
b011 Q
1Y
#560
0Y
#561
b001 Q
b110 R
1Y
#562
0Y
#563
b010 Q
1Y
#564
0Y
#565
b011 Q
1Y
#566
0Y
#567
b001 Q
b111 R
1Y
#568
0Y
#569
b010 Q
1Y
#570
0Y
#571
b011 Q
1Y
#572
0Y
#573
b100 Q
1Y
#574
0Y
#575
b000 Q
1Y
b0000000000000000 b
1c
#576
0Y
#577
1Y
0c
#578
0Y
#579
1Y
#580
0Y
#581
1Y
#582
0Y
#583
1Y
#584
0Y
#585
1Y
#586
0Y
#587
1Y
#588
0Y
#589
1Y
#590
0Y
#591
1Y
#592
0Y
#593
1Y
#594
0Y
#595
1Y
#596
0Y
#597
1Y
#598
0Y
#599
1Y
#600
0Y
#601
1Y
#602
0Y
#603
1Y
#604
0Y
#605
1Y
#606
0Y
1`
1a
1g
#607
1P
b001 Q
b000 R
1Y
0g
#608
0Y
0`
0a
#609
b00000000000000001 D
0P
b010 Q
1Y
#610
0Y
#611
b0000000100000000 E
b011 Q
b000000000111111100000000 T
b0000000011111110 U
1Y
#612
0Y
#613
b00000000001000000000 H
b001 Q
b001 R
b0000000000011111110 S
b000000000000000000000000 T
b0000000000000000 U
1Y
#614
0Y
#615
b00000000000000000 D
b010 Q
1Y
#616
0Y
#617
b0000000000000000 E
b011 Q
1Y
#618
0Y
#619
b001 Q
b010 R
1Y
#620
0Y
#621
b010 Q
1Y
#622
0Y
#623
b011 Q
1Y
#624
0Y
#625
b001 Q
b011 R
1Y
#626
0Y
#627
b010 Q
1Y
#628
0Y
#629
b011 Q
1Y
#630
0Y
#631
b001 Q
b100 R
1Y
#632
0Y
#633
b010 Q
1Y
#634
0Y
#635
b011 Q
1Y
#636
0Y
#637
b001 Q
b101 R
1Y
#638
0Y
#639
b010 Q
1Y
#640
0Y
#641
b011 Q
1Y
#642
0Y
#643
b001 Q
b110 R
1Y
#644
0Y
#645
b010 Q
1Y
#646
0Y
#647
b011 Q
1Y
#648
0Y
#649
b001 Q
b111 R
1Y
#650
0Y
#651
b010 Q
1Y
#652
0Y
#653
b011 Q
1Y
#654
0Y
#655
b100 Q
1Y
#656
0Y
#657
b000 Q
1Y
b0000000000011111 b
1c
#658
0Y
#659
1Y
0c
#660
0Y
#661
1Y
#662
0Y
#663
1Y
#664
0Y
#665
1Y
#666
0Y
#667
1Y
#668
0Y
#669
1Y
#670
0Y
#671
1Y
#672
0Y
#673
1Y
#674
0Y
#675
1Y
#676
0Y
#677
1Y
#678
0Y
#679
1Y
#680
0Y
#681
1Y
#682
0Y
#683
1Y
#684
0Y
#685
1Y
#686
0Y
#687
1Y
#688
0Y
1`
1a
1g
#689
1P
b001 Q
b000 R
b0000000000000000000 S
1Y
0g
#690
0Y
0`
0a
#691
b00000000000000010 D
0P
b010 Q
1Y
#692
0Y
#693
b0000001000000000 E
b011 Q
b000000001111111000000000 T
b0000000111111100 U
1Y
#694
0Y
#695
b00000000001100000000 H
b001 Q
b001 R
b0000000000111111100 S
b000000000000000000000000 T
b0000000000000000 U
1Y
#696
0Y
#697
b00000000000000000 D
b010 Q
1Y
#698
0Y
#699
b0000000000000000 E
b011 Q
1Y
#700
0Y
#701
b001 Q
b010 R
1Y
#702
0Y
#703
b010 Q
1Y
#704
0Y
#705
b011 Q
1Y
#706
0Y
#707
b001 Q
b011 R
1Y
#708
0Y
#709
b010 Q
1Y
#710
0Y
#711
b011 Q
1Y
#712
0Y
#713
b001 Q
b100 R
1Y
#714
0Y
#715
b010 Q
1Y
#716
0Y
#717
b011 Q
1Y
#718
0Y
#719
b001 Q
b101 R
1Y
#720
0Y
#721
b010 Q
1Y
#722
0Y
#723
b011 Q
1Y
#724
0Y
#725
b001 Q
b110 R
1Y
#726
0Y
#727
b010 Q
1Y
#728
0Y
#729
b011 Q
1Y
#730
0Y
#731
b001 Q
b111 R
1Y
#732
0Y
#733
b010 Q
1Y
#734
0Y
#735
b011 Q
1Y
#736
0Y
#737
b100 Q
1Y
#738
0Y
#739
b000 Q
1Y
b0000000000111111 b
1c
#740
0Y
#741
1Y
0c
#742
0Y
#743
1Y
#744
0Y
#745
1Y
#746
0Y
#747
1Y
#748
0Y
#749
1Y
#750
0Y
#751
1Y
#752
0Y
#753
1Y
#754
0Y
#755
1Y
#756
0Y
#757
1Y
#758
0Y
#759
1Y
#760
0Y
#761
1Y
#762
0Y
#763
1Y
#764
0Y
#765
1Y
#766
0Y
#767
1Y
#768
0Y
#769
1Y
#770
0Y
1`
1a
1g
#771
1P
b001 Q
b000 R
b0000000000000000000 S
1Y
0g
#772
0Y
0`
0a
#773
b00000000000000011 D
0P
b010 Q
1Y
#774
0Y
#775
b0000001100000000 E
b011 Q
b000000010111110100000000 T
b0000001011111010 U
1Y
#776
0Y
#777
b00000000010000000000 H
b001 Q
b001 R
b0000000001011111010 S
b000000000000000000000000 T
b0000000000000000 U
1Y
#778
0Y
#779
b00000000000000000 D
b010 Q
1Y
#780
0Y
#781
b0000000000000000 E
b011 Q
1Y
#782
0Y
#783
b001 Q
b010 R
1Y
#784
0Y
#785
b010 Q
1Y
#786
0Y
#787
b011 Q
1Y
#788
0Y
#789
b001 Q
b011 R
1Y
#790
0Y
#791
b010 Q
1Y
#792
0Y
#793
b011 Q
1Y
#794
0Y
#795
b001 Q
b100 R
1Y
#796
0Y
#797
b010 Q
1Y
#798
0Y
#799
b011 Q
1Y
#800
0Y
#801
b001 Q
b101 R
1Y
#802
0Y
#803
b010 Q
1Y
#804
0Y
#805
b011 Q
1Y
#806
0Y
#807
b001 Q
b110 R
1Y
#808
0Y
#809
b010 Q
1Y
#810
0Y
#811
b011 Q
1Y
#812
0Y
#813
b001 Q
b111 R
1Y
#814
0Y
#815
b010 Q
1Y
#816
0Y
#817
b011 Q
1Y
#818
0Y
#819
b100 Q
1Y
#820
0Y
#821
b000 Q
1Y
b0000000001011111 b
1c
#822
0Y
#823
1Y
0c
#824
0Y
#825
1Y
#826
0Y
#827
1Y
#828
0Y
#829
1Y
#830
0Y
#831
1Y
#832
0Y
#833
1Y
#834
0Y
#835
1Y
#836
0Y
#837
1Y
#838
0Y
#839
1Y
#840
0Y
#841
1Y
#842
0Y
#843
1Y
#844
0Y
#845
1Y
#846
0Y
#847
1Y
#848
0Y
#849
1Y
#850
0Y
#851
1Y
#852
0Y
1`
1a
1g
#853
1P
b001 Q
b000 R
b0000000000000000000 S
1Y
0g
#854
0Y
0`
0a
#855
b00000000000000100 D
0P
b010 Q
1Y
#856
0Y
#857
b0000010000000000 E
b011 Q
b000000011111110000000000 T
b0000001111111000 U
1Y
#858
0Y
#859
b00000000010100000000 H
b001 Q
b001 R
b0000000001111111000 S
b000000000000000000000000 T
b0000000000000000 U
1Y
#860
0Y
#861
b00000000000000000 D
b010 Q
1Y
#862
0Y
#863
b0000000000000000 E
b011 Q
1Y
#864
0Y
#865
b001 Q
b010 R
1Y
#866
0Y
#867
b010 Q
1Y
#868
0Y
#869
b011 Q
1Y
#870
0Y
#871
b001 Q
b011 R
1Y
#872
0Y
#873
b010 Q
1Y
#874
0Y
#875
b011 Q
1Y
#876
0Y
#877
b001 Q
b100 R
1Y
#878
0Y
#879
b010 Q
1Y
#880
0Y
#881
b011 Q
1Y
#882
0Y
#883
b001 Q
b101 R
1Y
#884
0Y
#885
b010 Q
1Y
#886
0Y
#887
b011 Q
1Y
#888
0Y
#889
b001 Q
b110 R
1Y
#890
0Y
#891
b010 Q
1Y
#892
0Y
#893
b011 Q
1Y
#894
0Y
#895
b001 Q
b111 R
1Y
#896
0Y
#897
b010 Q
1Y
#898
0Y
#899
b011 Q
1Y
#900
0Y
#901
b100 Q
1Y
#902
0Y
#903
b000 Q
1Y
b0000000001111111 b
1c
#904
0Y
#905
1Y
0c
#906
0Y
#907
1Y
#908
0Y
#909
1Y
#910
0Y
#911
1Y
#912
0Y
#913
1Y
#914
0Y
#915
1Y
#916
0Y
#917
1Y
#918
0Y
#919
1Y
#920
0Y
#921
1Y
#922
0Y
#923
1Y
