hw/quartus/wave-table-synth/output_files/stp1.vcd
$comment
Copyright (C) 2021  Intel Corporation. All rights reserved.
Your use of Intel Corporation's design tools, logic functions 
and other software and tools, and any partner logic 
functions, and any output files from any of the foregoing 
(including device programming or simulation files), and any 
associated documentation or information are expressly subject 
to the terms and conditions of the Intel Program License 
Subscription Agreement, the Intel Quartus Prime License Agreement,
the Intel FPGA IP License Agreement, or other applicable license
agreement, including, without limitation, that your use is for
the sole purpose of programming logic devices manufactured by
Intel and sold by Intel or its authorized distributors.  Please
refer to the applicable agreement for further details, at
https://fpgasoftware.intel.com/eula.
$end

$date 
  05/06/2026 16:47:45 
$end
$version 
 QUARTUS_VCD_EXPORT 1.0 
$end
$timescale
  1 ps
$end
$scope module soc_system0 $end
$var reg 1 ! clk_clk $end
$scope module wave_table_synth_0 $end
$var reg 1 " mix_acc[31] $end
$var reg 1 # mix_acc[30] $end
$var reg 1 $ mix_acc[29] $end
$var reg 1 % mix_acc[28] $end
$var reg 1 & mix_acc[27] $end
$var reg 1 ' mix_acc[26] $end
$var reg 1 ( mix_acc[25] $end
$var reg 1 ) mix_acc[24] $end
$var reg 1 * mix_acc[23] $end
$var reg 1 + mix_acc[22] $end
$var reg 1 , mix_acc[21] $end
$var reg 1 - mix_acc[20] $end
$var reg 1 . mix_acc[19] $end
$var reg 1 / mix_acc[18] $end
$var reg 1 0 mix_acc[17] $end
$var reg 1 1 mix_acc[16] $end
$var reg 1 2 mix_acc[15] $end
$var reg 1 3 mix_acc[14] $end
$var reg 1 4 mix_acc[13] $end
$var reg 1 5 mix_acc[12] $end
$var reg 1 6 mix_acc[11] $end
$var reg 1 7 mix_acc[10] $end
$var reg 1 8 mix_acc[9] $end
$var reg 1 9 mix_acc[8] $end
$var reg 1 : mix_acc[7] $end
$var reg 1 ; mix_acc[6] $end
$var reg 1 < mix_acc[5] $end
$var reg 1 = mix_acc[4] $end
$var reg 1 > mix_acc[3] $end
$var reg 1 ? mix_acc[2] $end
$var reg 1 @ mix_acc[1] $end
$var reg 1 A mix_acc[0] $end
$scope module u_oscillator $end
$var reg 1 B osc_valid $end
$var reg 1 C osc_sample[15] $end
$var reg 1 D osc_sample[14] $end
$var reg 1 E osc_sample[13] $end
$var reg 1 F osc_sample[12] $end
$var reg 1 G osc_sample[11] $end
$var reg 1 H osc_sample[10] $end
$var reg 1 I osc_sample[9] $end
$var reg 1 J osc_sample[8] $end
$var reg 1 K osc_sample[7] $end
$var reg 1 L osc_sample[6] $end
$var reg 1 M osc_sample[5] $end
$var reg 1 N osc_sample[4] $end
$var reg 1 O osc_sample[3] $end
$var reg 1 P osc_sample[2] $end
$var reg 1 Q osc_sample[1] $end
$var reg 1 R osc_sample[0] $end
$upscope $end
$upscope $end
$upscope $end
$enddefinitions $end
#0
$dumpvars
0!
X"
X#
X$
X%
X&
X'
X(
X)
X*
X+
X,
X-
X.
X/
X0
X1
X2
X3
X4
X5
X6
X7
X8
X9
X:
X;
X<
X=
X>
X?
X@
XA
XB
XC
XD
XE
XF
XG
XH
XI
XJ
XK
XL
XM
XN
XO
XP
XQ
XR
$end
#500000000000
$comment Sample -128 (Start) $end
1!
1"
1#
1$
1%
1&
1'
1(
1)
1*
1+
1,
1-
1.
1/
10
11
12
13
14
05
16
07
18
19
0:
1;
1<
0=
1>
0?
0@
0A
0B
0C
0D
0E
0F
0G
0H
0I
0J
0K
0L
0M
0N
0O
0P
0Q
0R
#1000000000000
0!
#1500000000000
1!
#2000000000000
0!
#2500000000000
1!
#3000000000000
0!
#3500000000000
1!
#4000000000000
0!
#4500000000000
1!
#5000000000000
0!
#5500000000000
1!
#6000000000000
0!
#6500000000000
1!
#7000000000000
0!
#7500000000000
1!
#8000000000000
0!
#8500000000000
1!
#9000000000000
0!
#9500000000000
1!
#10000000000000
0!
#10500000000000
1!
#11000000000000
0!
#11500000000000
1!
#12000000000000
0!
#12500000000000
1!
#13000000000000
0!
#13500000000000
1!
#14000000000000
0!
#14500000000000
1!
#15000000000000
0!
#15500000000000
1!
#16000000000000
0!
#16500000000000
1!
#17000000000000
0!
#17500000000000
1!
#18000000000000
0!
#18500000000000
1!
#19000000000000
0!
#19500000000000
1!
#20000000000000
0!
#20500000000000
1!
#21000000000000
0!
#21500000000000
1!
#22000000000000
0!
#22500000000000
1!
#23000000000000
0!
#23500000000000
1!
#24000000000000
0!
#24500000000000
1!
#25000000000000
0!
#25500000000000
1!
#26000000000000
0!
#26500000000000
1!
#27000000000000
0!
#27500000000000
1!
#28000000000000
0!
#28500000000000
1!
#29000000000000
0!
#29500000000000
1!
#30000000000000
0!
#30500000000000
1!
#31000000000000
0!
#31500000000000
1!
#32000000000000
0!
#32500000000000
1!
#33000000000000
0!
#33500000000000
1!
#34000000000000
0!
#34500000000000
1!
#35000000000000
0!
#35500000000000
1!
#36000000000000
0!
#36500000000000
1!
#37000000000000
0!
#37500000000000
1!
#38000000000000
0!
#38500000000000
1!
#39000000000000
0!
#39500000000000
1!
#40000000000000
0!
#40500000000000
1!
#41000000000000
0!
#41500000000000
1!
#42000000000000
0!
#42500000000000
1!
#43000000000000
0!
#43500000000000
1!
#44000000000000
0!
#44500000000000
1!
#45000000000000
0!
#45500000000000
1!
#46000000000000
0!
#46500000000000
1!
#47000000000000
0!
#47500000000000
1!
#48000000000000
0!
#48500000000000
1!
#49000000000000
0!
#49500000000000
1!
#50000000000000
0!
#50500000000000
1!
#51000000000000
0!
#51500000000000
1!
#52000000000000
0!
#52500000000000
1!
#53000000000000
0!
#53500000000000
1!
#54000000000000
0!
#54500000000000
1!
#55000000000000
0!
#55500000000000
1!
#56000000000000
0!
#56500000000000
1!
#57000000000000
0!
#57500000000000
1!
#58000000000000
0!
#58500000000000
1!
#59000000000000
0!
#59500000000000
1!
#60000000000000
0!
#60500000000000
1!
#61000000000000
0!
#61500000000000
1!
#62000000000000
0!
#62500000000000
1!
#63000000000000
0!
#63500000000000
1!
#64000000000000
0!
#64500000000000
1!
#65000000000000
0!
#65500000000000
1!
#66000000000000
0!
#66500000000000
1!
#67000000000000
0!
#67500000000000
1!
#68000000000000
0!
#68500000000000
1!
#69000000000000
0!
#69500000000000
1!
#70000000000000
0!
#70500000000000
1!
#71000000000000
0!
#71500000000000
1!
#72000000000000
0!
#72500000000000
1!
#73000000000000
0!
#73500000000000
1!
#74000000000000
0!
#74500000000000
1!
#75000000000000
0!
#75500000000000
1!
#76000000000000
0!
#76500000000000
1!
#77000000000000
0!
#77500000000000
1!
#78000000000000
0!
#78500000000000
1!
#79000000000000
0!
#79500000000000
1!
#80000000000000
0!
#80500000000000
1!
#81000000000000
0!
#81500000000000
1!
#82000000000000
0!
#82500000000000
1!
#83000000000000
0!
#83500000000000
1!
#84000000000000
0!
#84500000000000
1!
#85000000000000
0!
#85500000000000
1!
#86000000000000
0!
#86500000000000
1!
#87000000000000
0!
#87500000000000
1!
#88000000000000
0!
#88500000000000
1!
#89000000000000
0!
#89500000000000
1!
#90000000000000
0!
#90500000000000
1!
#91000000000000
0!
#91500000000000
1!
#92000000000000
0!
#92500000000000
1!
#93000000000000
0!
#93500000000000
1!
#94000000000000
0!
#94500000000000
1!
#95000000000000
0!
#95500000000000
1!
#96000000000000
0!
#96500000000000
1!
#97000000000000
0!
#97500000000000
1!
#98000000000000
0!
#98500000000000
1!
#99000000000000
0!
#99500000000000
1!
#100000000000000
0!
#100500000000000
1!
#101000000000000
0!
#101500000000000
1!
#102000000000000
0!
#102500000000000
1!
#103000000000000
0!
#103500000000000
1!
#104000000000000
0!
#104500000000000
1!
#105000000000000
0!
#105500000000000
1!
#106000000000000
0!
#106500000000000
1!
#107000000000000
0!
#107500000000000
1!
#108000000000000
0!
#108500000000000
1!
#109000000000000
0!
#109500000000000
1!
#110000000000000
0!
#110500000000000
1!
#111000000000000
0!
#111500000000000
1!
#112000000000000
0!
#112500000000000
1!
#113000000000000
0!
#113500000000000
1!
#114000000000000
0!
#114500000000000
1!
#115000000000000
0!
#115500000000000
1!
#116000000000000
0!
#116500000000000
1!
#117000000000000
0!
#117500000000000
1!
#118000000000000
0!
#118500000000000
1!
#119000000000000
0!
#119500000000000
1!
#120000000000000
0!
#120500000000000
1!
#121000000000000
0!
#121500000000000
1!
#122000000000000
0!
#122500000000000
1!
#123000000000000
0!
#123500000000000
1!
#124000000000000
0!
#124500000000000
1!
#125000000000000
0!
#125500000000000
1!
0"
0#
0$
0%
0&
0'
0(
0)
0*
0+
0,
0-
0.
0/
00
01
02
03
04
06
08
09
0;
0<
0>
#126000000000000
0!
#126500000000000
1!
#127000000000000
0!
#127500000000000
1!
#128000000000000
0!
#128500000000000
$comment Sample 0 (Trigger) $end
1!
1B
1C
1D
1E
1F
1G
1I
1K
1M
1N
1P
#129000000000000
0!
#129500000000000
1!
1"
1#
1$
1%
1&
1'
1(
1)
1*
1+
1,
1-
1.
1/
10
11
12
13
14
15
16
18
1:
1<
1=
1?
0G
0I
1O
0P
1Q
1R
#130000000000000
0!
#130500000000000
1!
05
19
0:
1;
0=
1>
1@
1A
0C
0D
0E
0F
0K
0M
0N
0O
0Q
0R
#131000000000000
0!
#131500000000000
1!
#132000000000000
0!
#132500000000000
1!
#133000000000000
0!
#133500000000000
1!
#134000000000000
0!
#134500000000000
1!
#135000000000000
0!
#135500000000000
1!
#136000000000000
0!
#136500000000000
1!
#137000000000000
0!
#137500000000000
1!
#138000000000000
0!
#138500000000000
1!
#139000000000000
0!
#139500000000000
1!
#140000000000000
0!
#140500000000000
1!
#141000000000000
0!
#141500000000000
1!
#142000000000000
0!
#142500000000000
1!
#143000000000000
0!
#143500000000000
1!
#144000000000000
0!
#144500000000000
1!
#145000000000000
0!
#145500000000000
1!
#146000000000000
0!
#146500000000000
1!
#147000000000000
0!
#147500000000000
1!
#148000000000000
0!
#148500000000000
1!
#149000000000000
0!
#149500000000000
1!
#150000000000000
0!
#150500000000000
1!
#151000000000000
0!
#151500000000000
1!
#152000000000000
0!
#152500000000000
1!
#153000000000000
0!
#153500000000000
1!
#154000000000000
0!
#154500000000000
1!
#155000000000000
0!
#155500000000000
1!
#156000000000000
0!
#156500000000000
1!
#157000000000000
0!
#157500000000000
1!
#158000000000000
0!
#158500000000000
1!
#159000000000000
0!
#159500000000000
1!
#160000000000000
0!
#160500000000000
1!
0B
#161000000000000
0!
#161500000000000
1!
#162000000000000
0!
#162500000000000
1!
0"
0#
0$
0%
0&
0'
0(
0)
0*
0+
0,
0-
0.
0/
00
01
02
03
04
06
08
09
0;
0<
0>
0?
0@
0A
#163000000000000
0!
#163500000000000
1!
#164000000000000
0!
#164500000000000
1!
#165000000000000
0!
#165500000000000
1!
1B
1C
1D
1E
1F
1G
1I
1K
1M
1N
1O
1P
1R
#166000000000000
0!
#166500000000000
1!
1"
1#
1$
1%
1&
1'
1(
1)
1*
1+
1,
1-
1.
1/
10
11
12
13
14
15
16
18
1:
1<
1=
1>
1?
1A
0G
0I
0P
0R
#167000000000000
0!
#167500000000000
1!
05
19
0:
1;
0>
0C
0D
0E
0F
0K
0M
0N
0O
