hw/testbenches/bram_load/waveform.vcd
$version Generated by VerilatedVcd $end
$timescale 1ps $end
 $scope module TOP $end
  $var wire 1 Y clk $end
  $var wire 1 Z reset $end
  $var wire 16 [ writedata [15:0] $end
  $var wire 16 \ readdata [15:0] $end
  $var wire 1 ] write $end
  $var wire 1 ^ chipselect $end
  $var wire 18 _ address [17:0] $end
  $var wire 1 ` ready_left $end
  $var wire 1 a ready_right $end
  $var wire 16 b sample [15:0] $end
  $var wire 1 c sample_valid $end
  $scope module wave_table_synth $end
   $var wire 1 Y clk $end
   $var wire 1 Z reset $end
   $var wire 16 [ writedata [15:0] $end
   $var wire 16 \ readdata [15:0] $end
   $var wire 1 ] write $end
   $var wire 1 ^ chipselect $end
   $var wire 18 _ address [17:0] $end
   $var wire 1 ` ready_left $end
   $var wire 1 a ready_right $end
   $var wire 16 b sample [15:0] $end
   $var wire 1 c sample_valid $end
   $var wire 32 h NUM_VOICES [31:0] $end
   $var wire 32 i WAVETABLE_DEPTH [31:0] $end
   $var wire 1 d is_wavetable $end
   $var wire 3 e voice_sel [2:0] $end
   $var wire 2 f reg_sel [1:0] $end
   $var wire 1 # note_on_reg[0] $end
   $var wire 1 $ note_on_reg[1] $end
   $var wire 1 % note_on_reg[2] $end
   $var wire 1 & note_on_reg[3] $end
   $var wire 1 ' note_on_reg[4] $end
   $var wire 1 ( note_on_reg[5] $end
   $var wire 1 ) note_on_reg[6] $end
   $var wire 1 * note_on_reg[7] $end
   $var wire 16 + step_size_reg[0] [15:0] $end
   $var wire 16 , step_size_reg[1] [15:0] $end
   $var wire 16 - step_size_reg[2] [15:0] $end
   $var wire 16 . step_size_reg[3] [15:0] $end
   $var wire 16 / step_size_reg[4] [15:0] $end
   $var wire 16 0 step_size_reg[5] [15:0] $end
   $var wire 16 1 step_size_reg[6] [15:0] $end
   $var wire 16 2 step_size_reg[7] [15:0] $end
   $var wire 7 3 velocity_reg[0] [6:0] $end
   $var wire 7 4 velocity_reg[1] [6:0] $end
   $var wire 7 5 velocity_reg[2] [6:0] $end
   $var wire 7 6 velocity_reg[3] [6:0] $end
   $var wire 7 7 velocity_reg[4] [6:0] $end
   $var wire 7 8 velocity_reg[5] [6:0] $end
   $var wire 7 9 velocity_reg[6] [6:0] $end
   $var wire 7 : velocity_reg[7] [6:0] $end
   $var wire 5 ; slot_select_reg[0] [4:0] $end
   $var wire 5 < slot_select_reg[1] [4:0] $end
   $var wire 5 = slot_select_reg[2] [4:0] $end
   $var wire 5 > slot_select_reg[3] [4:0] $end
   $var wire 5 ? slot_select_reg[4] [4:0] $end
   $var wire 5 @ slot_select_reg[5] [4:0] $end
   $var wire 5 A slot_select_reg[6] [4:0] $end
   $var wire 5 B slot_select_reg[7] [4:0] $end
   $var wire 16 C avalon_rdata [15:0] $end
   $var wire 17 D dds_read_addr [16:0] $end
   $var wire 16 E dds_rdata [15:0] $end
   $var wire 1 F is_wavetable_r $end
   $var wire 16 G ctrl_rdata [15:0] $end
   $var wire 20 H phase_acc[0] [19:0] $end
   $var wire 20 I phase_acc[1] [19:0] $end
   $var wire 20 J phase_acc[2] [19:0] $end
   $var wire 20 K phase_acc[3] [19:0] $end
   $var wire 20 L phase_acc[4] [19:0] $end
   $var wire 20 M phase_acc[5] [19:0] $end
   $var wire 20 N phase_acc[6] [19:0] $end
   $var wire 20 O phase_acc[7] [19:0] $end
   $var wire 1 P prev_ready $end
   $var wire 1 g sample_tick $end
   $var wire 3 Q state [2:0] $end
   $var wire 3 R voice_idx [2:0] $end
   $var wire 19 S mix_acc [18:0] $end
   $var wire 24 T voice_product [23:0] $end
   $var wire 16 U voice_scaled [15:0] $end
   $scope module unnamedblk1 $end
    $var wire 32 V i [31:0] $end
   $upscope $end
   $scope module unnamedblk2 $end
    $var wire 32 W i [31:0] $end
   $upscope $end
   $scope module unnamedblk3 $end
    $var wire 32 X i [31:0] $end
   $upscope $end
  $upscope $end
 $upscope $end
$enddefinitions $end


#0
1#
1$
1%
1&
1'
1(
1)
1*
b1110100011100000 +
b1110100011100000 ,
b1110100011100000 -
b1110100011100000 .
b1110100011100000 /
b1110100011100000 0
b1110100011100000 1
b1110100011100000 2
b1101000 3
b1101000 4
b1101000 5
b1101000 6
b1101000 7
b1101000 8
b1101000 9
b1101000 :
b01111 ;
b01111 <
b01111 =
b01111 >
b01111 ?
b01111 @
b01111 A
b01111 B
b1111100010100110 C
b11100101111100011 D
b1000101001010011 E
1F
b0100100001000011 G
b10000000100011110101 H
b10000000100011110101 I
b10000000100011110101 J
b10000000100011110101 K
b10000000100011110101 L
b10000000100011110101 M
b10000000100011110101 N
b10000000100011110101 O
1P
b111 Q
b101 R
b1100011100110110111 S
b110100000011000110111000 T
b1010000001100011 U
b00000000000000000000000000000000 V
b00000000000000000000000000000000 W
b00000000000000000000000000000000 X
0Y
1Z
b0000000000000000 [
b1111100010100110 \
0]
0^
b000000000000000000 _
0`
0a
b1011000000101111 b
1c
0d
b000 e
b00 f
0g
b00000000000000000000000000001000 h
b00000000000000100000000000000000 i
#1
0#
0$
0%
0&
0'
0(
0)
0*
b0000000000000000 +
b0000000000000000 ,
b0000000000000000 -
b0000000000000000 .
b0000000000000000 /
b0000000000000000 0
b0000000000000000 1
b0000000000000000 2
b0000000 3
b0000000 4
b0000000 5
b0000000 6
b0000000 7
b0000000 8
b0000000 9
b0000000 :
b00000 ;
b00000 <
b00000 =
b00000 >
b00000 ?
b00000 @
b00000 A
b00000 B
b0100110001011001 C
b0100110001011001 E
0F
b0000000000000001 G
b00000000000000000000 H
b00000000000000000000 I
b00000000000000000000 J
b00000000000000000000 K
b00000000000000000000 L
b00000000000000000000 M
b00000000000000000000 N
b00000000000000000000 O
0P
b000 Q
b000 R
b0000000000000000000 S
b000000000000000000000000 T
b0000000000000000 U
b00000000000000000000000000001000 V
b00000000000000000000000000001000 W
1Y
b0000000000000001 \
b0000000000000000 b
0c
#2
0Y
#3
b0000000000000000 G
1Y
b0000000000000000 \
#4
0Y
#5
1Y
#6
0Y
#7
1Y
#8
0Y
0Z
#9
b00000000000000000000000000001000 X
1Y
#10
0Y
b1010000000000000 [
1]
1^
b100000000000000000 _
1d
#11
1F
1Y
b0100110001011001 \
#12
0Y
b1010000000000001 [
b100000000000000001 _
b01 f
#13
1Y
#14
0Y
b1010000000000010 [
b100000000000000010 _
b10 f
#15
1Y
#16
0Y
b1010000000000011 [
b100000000000000011 _
b11 f
#17
1Y
#18
0Y
b1010000000000100 [
b100000000000000100 _
b001 e
b00 f
#19
1Y
#20
0Y
b1010000000000101 [
b100000000000000101 _
b01 f
#21
1Y
#22
0Y
b1010000000000110 [
b100000000000000110 _
b10 f
#23
1Y
#24
0Y
b1010000000000111 [
b100000000000000111 _
b11 f
#25
1Y
#26
0Y
b1010000000001000 [
b100000000000001000 _
b010 e
b00 f
#27
1Y
#28
0Y
b1010000000001001 [
b100000000000001001 _
b01 f
#29
1Y
#30
0Y
b1010000000001010 [
b100000000000001010 _
b10 f
#31
1Y
#32
0Y
b1010000000001011 [
b100000000000001011 _
b11 f
#33
1Y
#34
0Y
b1010000000001100 [
b100000000000001100 _
b011 e
b00 f
#35
1Y
#36
0Y
b1010000000001101 [
b100000000000001101 _
b01 f
#37
1Y
#38
0Y
b1010000000001110 [
b100000000000001110 _
b10 f
#39
1Y
#40
0Y
b1010000000001111 [
b100000000000001111 _
b11 f
#41
1Y
#42
0Y
0]
b100000000000000000 _
b000 e
b00 f
#43
b1010000000000000 C
1Y
b1010000000000000 \
#44
0Y
b100000000000000001 _
b01 f
#45
b1010000000000001 C
1Y
b1010000000000001 \
#46
0Y
b100000000000000010 _
b10 f
#47
b1010000000000010 C
1Y
b1010000000000010 \
#48
0Y
b100000000000000011 _
b11 f
#49
b1010000000000011 C
1Y
b1010000000000011 \
#50
0Y
b100000000000000100 _
b001 e
b00 f
#51
b1010000000000100 C
1Y
b1010000000000100 \
#52
0Y
b100000000000000101 _
b01 f
#53
b1010000000000101 C
1Y
b1010000000000101 \
#54
0Y
b100000000000000110 _
b10 f
#55
b1010000000000110 C
1Y
b1010000000000110 \
#56
0Y
b100000000000000111 _
b11 f
#57
b1010000000000111 C
1Y
b1010000000000111 \
#58
0Y
b100000000000001000 _
b010 e
b00 f
#59
b1010000000001000 C
1Y
b1010000000001000 \
#60
0Y
b100000000000001001 _
b01 f
#61
b1010000000001001 C
1Y
b1010000000001001 \
#62
0Y
b100000000000001010 _
b10 f
#63
b1010000000001010 C
1Y
b1010000000001010 \
#64
0Y
b100000000000001011 _
b11 f
#65
b1010000000001011 C
1Y
b1010000000001011 \
#66
0Y
b100000000000001100 _
b011 e
b00 f
#67
b1010000000001100 C
1Y
b1010000000001100 \
#68
0Y
b100000000000001101 _
b01 f
#69
b1010000000001101 C
1Y
b1010000000001101 \
#70
0Y
b100000000000001110 _
b10 f
#71
b1010000000001110 C
1Y
b1010000000001110 \
#72
0Y
b100000000000001111 _
b11 f
#73
b1010000000001111 C
1Y
b1010000000001111 \
#74
0Y
b1011000000000000 [
1]
b100001000000000000 _
b000 e
b00 f
#75
b0100110001011001 C
1Y
b0100110001011001 \
#76
0Y
b1011000000000001 [
b100001000000000001 _
b01 f
#77
1Y
#78
0Y
b1011000000000010 [
b100001000000000010 _
b10 f
#79
1Y
#80
0Y
b1011000000000011 [
b100001000000000011 _
b11 f
#81
1Y
#82
0Y
b1011000000000100 [
b100001000000000100 _
b001 e
b00 f
#83
1Y
#84
0Y
b1011000000000101 [
b100001000000000101 _
b01 f
#85
1Y
#86
0Y
b1011000000000110 [
b100001000000000110 _
b10 f
#87
1Y
#88
0Y
b1011000000000111 [
b100001000000000111 _
b11 f
#89
1Y
#90
0Y
0]
b100001000000000000 _
b000 e
b00 f
#91
b1011000000000000 C
1Y
b1011000000000000 \
#92
0Y
b100001000000000001 _
b01 f
#93
b1011000000000001 C
1Y
b1011000000000001 \
#94
0Y
b100001000000000010 _
b10 f
#95
b1011000000000010 C
1Y
b1011000000000010 \
#96
0Y
b100001000000000011 _
b11 f
#97
b1011000000000011 C
1Y
b1011000000000011 \
#98
0Y
b100001000000000100 _
b001 e
b00 f
#99
b1011000000000100 C
1Y
b1011000000000100 \
#100
0Y
b100001000000000101 _
b01 f
#101
b1011000000000101 C
1Y
b1011000000000101 \
#102
0Y
b100001000000000110 _
b10 f
#103
b1011000000000110 C
1Y
b1011000000000110 \
#104
0Y
b100001000000000111 _
b11 f
#105
b1011000000000111 C
1Y
b1011000000000111 \
#106
0Y
b100000000000000000 _
b000 e
b00 f
#107
b1010000000000000 C
1Y
b1010000000000000 \
#108
0Y
b100000000000000001 _
b01 f
#109
b1010000000000001 C
1Y
b1010000000000001 \
#110
0Y
b100000000000000010 _
b10 f
#111
b1010000000000010 C
1Y
b1010000000000010 \
#112
0Y
b100000000000000011 _
b11 f
#113
b1010000000000011 C
1Y
b1010000000000011 \
#114
0Y
b100000000000000100 _
b001 e
b00 f
#115
b1010000000000100 C
1Y
b1010000000000100 \
#116
0Y
b100000000000000101 _
b01 f
#117
b1010000000000101 C
1Y
b1010000000000101 \
#118
0Y
b100000000000000110 _
b10 f
#119
b1010000000000110 C
1Y
b1010000000000110 \
#120
0Y
b100000000000000111 _
b11 f
#121
b1010000000000111 C
1Y
b1010000000000111 \
#122
0Y
b100000000000001000 _
b010 e
b00 f
#123
b1010000000001000 C
1Y
b1010000000001000 \
#124
0Y
b100000000000001001 _
b01 f
#125
b1010000000001001 C
1Y
b1010000000001001 \
#126
0Y
b100000000000001010 _
b10 f
#127
b1010000000001010 C
1Y
b1010000000001010 \
#128
0Y
b100000000000001011 _
b11 f
#129
b1010000000001011 C
1Y
b1010000000001011 \
#130
0Y
b100000000000001100 _
b011 e
b00 f
#131
b1010000000001100 C
1Y
b1010000000001100 \
#132
0Y
b100000000000001101 _
b01 f
#133
b1010000000001101 C
1Y
b1010000000001101 \
#134
0Y
b100000000000001110 _
b10 f
#135
b1010000000001110 C
1Y
b1010000000001110 \
#136
0Y
b100000000000001111 _
b11 f
#137
b1010000000001111 C
1Y
b1010000000001111 \
#138
0Y
b0000000000000000 [
1]
b000000000000000000 _
0d
b000 e
b00 f
#139
b1010000000000000 C
0F
1Y
b0000000000000000 \
#140
0Y
b0000001111101000 [
b000000000000000001 _
b01 f
#141
b0000001111101000 +
b1010000000000001 C
1Y
#142
0Y
b0000000001000000 [
b000000000000000010 _
b10 f
#143
b1000000 3
b1010000000000010 C
b000100110001011001000000 T
b0010011000101100 U
1Y
#144
0Y
b0000000000000000 [
b000000000000000011 _
b11 f
#145
b1010000000000011 C
1Y
#146
0Y
b0000000000000001 [
b000000000000000100 _
b001 e
b00 f
#147
1$
b1010000000000100 C
1Y
#148
0Y
b0000010001001100 [
b000000000000000101 _
b01 f
#149
b0000010001001100 ,
b1010000000000101 C
1Y
#150
0Y
b0000000001000001 [
b000000000000000110 _
b10 f
#151
b1000001 4
b1010000000000110 C
1Y
#152
0Y
b0000000000000001 [
b000000000000000111 _
b11 f
#153
b00001 <
b1010000000000111 C
1Y
#154
0Y
b0000000000000000 [
b000000000000001000 _
b010 e
b00 f
#155
b1010000000001000 C
1Y
#156
0Y
b0000010010110000 [
b000000000000001001 _
b01 f
#157
b0000010010110000 -
b1010000000001001 C
1Y
#158
0Y
b0000000001000010 [
b000000000000001010 _
b10 f
#159
b1000010 5
b1010000000001010 C
1Y
#160
0Y
b0000000000000010 [
b000000000000001011 _
b11 f
#161
b00010 =
b1010000000001011 C
1Y
#162
0Y
b0000000000000001 [
b000000000000001100 _
b011 e
b00 f
#163
1&
b1010000000001100 C
1Y
#164
0Y
b0000010100010100 [
b000000000000001101 _
b01 f
#165
b0000010100010100 .
b1010000000001101 C
1Y
#166
0Y
b0000000001000011 [
b000000000000001110 _
b10 f
#167
b1000011 6
b1010000000001110 C
1Y
#168
0Y
b0000000000000011 [
b000000000000001111 _
b11 f
#169
b00011 >
b1010000000001111 C
1Y
#170
0Y
b0000000000000000 [
b000000000000010000 _
b100 e
b00 f
#171
b0100110001011001 C
1Y
#172
0Y
b0000010101111000 [
b000000000000010001 _
b01 f
#173
b0000010101111000 /
1Y
#174
0Y
b0000000001000100 [
b000000000000010010 _
b10 f
#175
b1000100 7
1Y
#176
0Y
b0000000000000100 [
b000000000000010011 _
b11 f
#177
b00100 ?
1Y
#178
0Y
b0000000000000001 [
b000000000000010100 _
b101 e
b00 f
#179
1(
1Y
#180
0Y
b0000010111011100 [
b000000000000010101 _
b01 f
#181
b0000010111011100 0
1Y
#182
0Y
b0000000001000101 [
b000000000000010110 _
b10 f
#183
b1000101 8
1Y
#184
0Y
b0000000000000101 [
b000000000000010111 _
b11 f
#185
b00101 @
1Y
#186
0Y
b0000000000000000 [
b000000000000011000 _
b110 e
b00 f
#187
1Y
#188
0Y
b0000011001000000 [
b000000000000011001 _
b01 f
#189
b0000011001000000 1
1Y
#190
0Y
b0000000001000110 [
b000000000000011010 _
b10 f
#191
b1000110 9
1Y
#192
0Y
b0000000000000110 [
b000000000000011011 _
b11 f
#193
b00110 A
1Y
#194
0Y
b0000000000000001 [
b000000000000011100 _
b111 e
b00 f
#195
1*
1Y
#196
0Y
b0000011010100100 [
b000000000000011101 _
b01 f
#197
b0000011010100100 2
1Y
#198
0Y
b0000000001000111 [
b000000000000011110 _
b10 f
#199
b1000111 :
1Y
#200
0Y
b0000000000000111 [
b000000000000011111 _
b11 f
#201
b00111 B
1Y
#202
0Y
0]
b000000000000000000 _
b000 e
b00 f
#203
b1010000000000000 C
1Y
#204
0Y
b000000000000000001 _
b01 f
#205
b1010000000000001 C
b0000001111101000 G
1Y
b0000001111101000 \
#206
0Y
b000000000000000010 _
b10 f
#207
b1010000000000010 C
b0000000001000000 G
1Y
b0000000001000000 \
#208
0Y
b000000000000000011 _
b11 f
#209
b1010000000000011 C
b0000000000000000 G
1Y
b0000000000000000 \
#210
0Y
b000000000000000100 _
b001 e
b00 f
#211
b1010000000000100 C
b0000000000000001 G
1Y
b0000000000000001 \
#212
0Y
b000000000000000101 _
b01 f
#213
b1010000000000101 C
b0000010001001100 G
1Y
b0000010001001100 \
#214
0Y
b000000000000000110 _
b10 f
#215
b1010000000000110 C
b0000000001000001 G
1Y
b0000000001000001 \
#216
0Y
b000000000000000111 _
b11 f
#217
b1010000000000111 C
b0000000000000001 G
1Y
b0000000000000001 \
#218
0Y
b000000000000001000 _
b010 e
b00 f
#219
b1010000000001000 C
b0000000000000000 G
1Y
b0000000000000000 \
#220
0Y
b000000000000001001 _
b01 f
#221
b1010000000001001 C
b0000010010110000 G
1Y
b0000010010110000 \
#222
0Y
b000000000000001010 _
b10 f
#223
b1010000000001010 C
b0000000001000010 G
1Y
b0000000001000010 \
#224
0Y
b000000000000001011 _
b11 f
#225
b1010000000001011 C
b0000000000000010 G
1Y
b0000000000000010 \
#226
0Y
b000000000000001100 _
b011 e
b00 f
#227
b1010000000001100 C
b0000000000000001 G
1Y
b0000000000000001 \
#228
0Y
b000000000000001101 _
b01 f
#229
b1010000000001101 C
b0000010100010100 G
1Y
b0000010100010100 \
#230
0Y
b000000000000001110 _
b10 f
#231
b1010000000001110 C
b0000000001000011 G
1Y
b0000000001000011 \
#232
0Y
b000000000000001111 _
b11 f
#233
b1010000000001111 C
b0000000000000011 G
1Y
b0000000000000011 \
#234
0Y
b000000000000010000 _
b100 e
b00 f
#235
b0100110001011001 C
b0000000000000000 G
1Y
b0000000000000000 \
#236
0Y
b000000000000010001 _
b01 f
#237
b0000010101111000 G
1Y
b0000010101111000 \
#238
0Y
b000000000000010010 _
b10 f
#239
b0000000001000100 G
1Y
b0000000001000100 \
#240
0Y
b000000000000010011 _
b11 f
#241
b0000000000000100 G
1Y
b0000000000000100 \
#242
0Y
b000000000000010100 _
b101 e
b00 f
#243
b0000000000000001 G
1Y
b0000000000000001 \
#244
0Y
b000000000000010101 _
b01 f
#245
b0000010111011100 G
1Y
b0000010111011100 \
#246
0Y
b000000000000010110 _
b10 f
#247
b0000000001000101 G
1Y
b0000000001000101 \
#248
0Y
b000000000000010111 _
b11 f
#249
b0000000000000101 G
1Y
b0000000000000101 \
#250
0Y
b000000000000011000 _
b110 e
b00 f
#251
b0000000000000000 G
1Y
b0000000000000000 \
#252
0Y
b000000000000011001 _
b01 f
#253
b0000011001000000 G
1Y
b0000011001000000 \
#254
0Y
b000000000000011010 _
b10 f
#255
b0000000001000110 G
1Y
b0000000001000110 \
#256
0Y
b000000000000011011 _
b11 f
#257
b0000000000000110 G
1Y
b0000000000000110 \
#258
0Y
b000000000000011100 _
b111 e
b00 f
#259
b0000000000000001 G
1Y
b0000000000000001 \
#260
0Y
b000000000000011101 _
b01 f
#261
b0000011010100100 G
1Y
b0000011010100100 \
#262
0Y
b000000000000011110 _
b10 f
#263
b0000000001000111 G
1Y
b0000000001000111 \
#264
0Y
b000000000000011111 _
b11 f
#265
b0000000000000111 G
1Y
b0000000000000111 \
#266
0Y
b1101111010101101 [
1]
b111111111111111111 _
1d
#267
1F
1Y
b0100110001011001 \
#268
0Y
0]
#269
b1101111010101101 C
1Y
b1101111010101101 \
