hw/testbenches/bram_load/waveform.vcd
$version Generated by VerilatedVcd $end
$timescale 1ps $end
 $scope module TOP $end
  $var wire 1 X clk $end
  $var wire 1 Y reset $end
  $var wire 16 Z writedata [15:0] $end
  $var wire 16 [ readdata [15:0] $end
  $var wire 1 \ write $end
  $var wire 1 ] chipselect $end
  $var wire 18 ^ address [17:0] $end
  $var wire 1 _ ready_left $end
  $var wire 1 ` ready_right $end
  $var wire 16 a sample [15:0] $end
  $var wire 1 b sample_valid $end
  $scope module wave_table_synth $end
   $var wire 1 X clk $end
   $var wire 1 Y reset $end
   $var wire 16 Z writedata [15:0] $end
   $var wire 16 [ readdata [15:0] $end
   $var wire 1 \ write $end
   $var wire 1 ] chipselect $end
   $var wire 18 ^ address [17:0] $end
   $var wire 1 _ ready_left $end
   $var wire 1 ` ready_right $end
   $var wire 16 a sample [15:0] $end
   $var wire 1 b sample_valid $end
   $var wire 32 g NUM_VOICES [31:0] $end
   $var wire 32 h WAVETABLE_DEPTH [31:0] $end
   $var wire 1 c is_wavetable $end
   $var wire 3 d voice_sel [2:0] $end
   $var wire 2 e reg_sel [1:0] $end
   $var wire 1 # note_on_reg[0] $end
   $var wire 1 $ note_on_reg[1] $end
   $var wire 1 % note_on_reg[2] $end
   $var wire 1 & note_on_reg[3] $end
   $var wire 1 ' note_on_reg[4] $end
   $var wire 1 ( note_on_reg[5] $end
   $var wire 1 ) note_on_reg[6] $end
   $var wire 1 * note_on_reg[7] $end
   $var wire 16 + step_size_reg[0] [15:0] $end
   $var wire 16 , step_size_reg[1] [15:0] $end
   $var wire 16 - step_size_reg[2] [15:0] $end
   $var wire 16 . step_size_reg[3] [15:0] $end
   $var wire 16 / step_size_reg[4] [15:0] $end
   $var wire 16 0 step_size_reg[5] [15:0] $end
   $var wire 16 1 step_size_reg[6] [15:0] $end
   $var wire 16 2 step_size_reg[7] [15:0] $end
   $var wire 7 3 velocity_reg[0] [6:0] $end
   $var wire 7 4 velocity_reg[1] [6:0] $end
   $var wire 7 5 velocity_reg[2] [6:0] $end
   $var wire 7 6 velocity_reg[3] [6:0] $end
   $var wire 7 7 velocity_reg[4] [6:0] $end
   $var wire 7 8 velocity_reg[5] [6:0] $end
   $var wire 7 9 velocity_reg[6] [6:0] $end
   $var wire 7 : velocity_reg[7] [6:0] $end
   $var wire 4 ; slot_select_reg[0] [3:0] $end
   $var wire 4 < slot_select_reg[1] [3:0] $end
   $var wire 4 = slot_select_reg[2] [3:0] $end
   $var wire 4 > slot_select_reg[3] [3:0] $end
   $var wire 4 ? slot_select_reg[4] [3:0] $end
   $var wire 4 @ slot_select_reg[5] [3:0] $end
   $var wire 4 A slot_select_reg[6] [3:0] $end
   $var wire 4 B slot_select_reg[7] [3:0] $end
   $var wire 16 C avalon_rdata [15:0] $end
   $var wire 16 D dds_read_addr [15:0] $end
   $var wire 16 E dds_rdata [15:0] $end
   $var wire 1 F is_wavetable_r $end
   $var wire 16 G ctrl_rdata [15:0] $end
   $var wire 20 H phase_acc[0] [19:0] $end
   $var wire 20 I phase_acc[1] [19:0] $end
   $var wire 20 J phase_acc[2] [19:0] $end
   $var wire 20 K phase_acc[3] [19:0] $end
   $var wire 20 L phase_acc[4] [19:0] $end
   $var wire 20 M phase_acc[5] [19:0] $end
   $var wire 20 N phase_acc[6] [19:0] $end
   $var wire 20 O phase_acc[7] [19:0] $end
   $var wire 1 f sink_ready $end
   $var wire 3 P state [2:0] $end
   $var wire 3 Q voice_idx [2:0] $end
   $var wire 19 R mix_acc [18:0] $end
   $var wire 24 S voice_product [23:0] $end
   $var wire 16 T voice_scaled [15:0] $end
   $scope module unnamedblk1 $end
    $var wire 32 U i [31:0] $end
   $upscope $end
   $scope module unnamedblk2 $end
    $var wire 32 V i [31:0] $end
   $upscope $end
   $scope module unnamedblk3 $end
    $var wire 32 W i [31:0] $end
   $upscope $end
  $upscope $end
 $upscope $end
$enddefinitions $end


#0
1#
1$
1%
1&
1'
1(
1)
1*
b1110100011100000 +
b1110100011100000 ,
b1110100011100000 -
b1110100011100000 .
b1110100011100000 /
b1110100011100000 0
b1110100011100000 1
b1110100011100000 2
b1101000 3
b1101000 4
b1101000 5
b1101000 6
b1101000 7
b1101000 8
b1101000 9
b1101000 :
b1111 ;
b1111 <
b1111 =
b1111 >
b1111 ?
b1111 @
b1111 A
b1111 B
b1111100010100110 C
b1100101111100011 D
b1000101001010011 E
1F
b0100100001000011 G
b10000000100011110101 H
b10000000100011110101 I
b10000000100011110101 J
b10000000100011110101 K
b10000000100011110101 L
b10000000100011110101 M
b10000000100011110101 N
b10000000100011110101 O
b111 P
b101 Q
b1100011100110110111 R
b110100000011000110111000 S
b1010000001100011 T
b00000000000000000000000000000000 U
b00000000000000000000000000000000 V
b00000000000000000000000000000000 W
0X
1Y
b0000000000000000 Z
b1111100010100110 [
0\
0]
b000000000000000000 ^
0_
0`
b1011000000101111 a
1b
0c
b000 d
b00 e
0f
b00000000000000000000000000001000 g
b00000000000000001100000000000000 h
#1
0#
0$
0%
0&
0'
0(
0)
0*
b0000000000000000 +
b0000000000000000 ,
b0000000000000000 -
b0000000000000000 .
b0000000000000000 /
b0000000000000000 0
b0000000000000000 1
b0000000000000000 2
b0000000 3
b0000000 4
b0000000 5
b0000000 6
b0000000 7
b0000000 8
b0000000 9
b0000000 :
b0000 ;
b0000 <
b0000 =
b0000 >
b0000 ?
b0000 @
b0000 A
b0000 B
b0100110001011001 C
b0101111110001111 E
0F
b0000000000000001 G
b00000000000000000000 H
b00000000000000000000 I
b00000000000000000000 J
b00000000000000000000 K
b00000000000000000000 L
b00000000000000000000 M
b00000000000000000000 N
b00000000000000000000 O
b000 P
b000 Q
b0000000000000000000 R
b000000000000000000000000 S
b0000000000000000 T
b00000000000000000000000000001000 U
b00000000000000000000000000001000 V
1X
b0000000000000001 [
b0000000000000000 a
0b
#2
0X
#3
b0000000000000000 G
1X
b0000000000000000 [
#4
0X
#5
1X
#6
0X
#7
1X
#8
0X
0Y
#9
b00000000000000000000000000001000 W
1X
#10
0X
b1010000000000000 Z
1\
1]
b100000000000000000 ^
1c
#11
1F
1X
b0100110001011001 [
#12
0X
b1010000000000001 Z
b100000000000000001 ^
b01 e
#13
1X
#14
0X
b1010000000000010 Z
b100000000000000010 ^
b10 e
#15
1X
#16
0X
b1010000000000011 Z
b100000000000000011 ^
b11 e
#17
1X
#18
0X
b1010000000000100 Z
b100000000000000100 ^
b001 d
b00 e
#19
1X
#20
0X
b1010000000000101 Z
b100000000000000101 ^
b01 e
#21
1X
#22
0X
b1010000000000110 Z
b100000000000000110 ^
b10 e
#23
1X
#24
0X
b1010000000000111 Z
b100000000000000111 ^
b11 e
#25
1X
#26
0X
b1010000000001000 Z
b100000000000001000 ^
b010 d
b00 e
#27
1X
#28
0X
b1010000000001001 Z
b100000000000001001 ^
b01 e
#29
1X
#30
0X
b1010000000001010 Z
b100000000000001010 ^
b10 e
#31
1X
#32
0X
b1010000000001011 Z
b100000000000001011 ^
b11 e
#33
1X
#34
0X
b1010000000001100 Z
b100000000000001100 ^
b011 d
b00 e
#35
1X
#36
0X
b1010000000001101 Z
b100000000000001101 ^
b01 e
#37
1X
#38
0X
b1010000000001110 Z
b100000000000001110 ^
b10 e
#39
1X
#40
0X
b1010000000001111 Z
b100000000000001111 ^
b11 e
#41
1X
#42
0X
0\
b100000000000000000 ^
b000 d
b00 e
#43
b1010000000000000 C
1X
b1010000000000000 [
#44
0X
b100000000000000001 ^
b01 e
#45
b1010000000000001 C
1X
b1010000000000001 [
#46
0X
b100000000000000010 ^
b10 e
#47
b1010000000000010 C
1X
b1010000000000010 [
#48
0X
b100000000000000011 ^
b11 e
#49
b1010000000000011 C
1X
b1010000000000011 [
#50
0X
b100000000000000100 ^
b001 d
b00 e
#51
b1010000000000100 C
1X
b1010000000000100 [
#52
0X
b100000000000000101 ^
b01 e
#53
b1010000000000101 C
1X
b1010000000000101 [
#54
0X
b100000000000000110 ^
b10 e
#55
b1010000000000110 C
1X
b1010000000000110 [
#56
0X
b100000000000000111 ^
b11 e
#57
b1010000000000111 C
1X
b1010000000000111 [
#58
0X
b100000000000001000 ^
b010 d
b00 e
#59
b1010000000001000 C
1X
b1010000000001000 [
#60
0X
b100000000000001001 ^
b01 e
#61
b1010000000001001 C
1X
b1010000000001001 [
#62
0X
b100000000000001010 ^
b10 e
#63
b1010000000001010 C
1X
b1010000000001010 [
#64
0X
b100000000000001011 ^
b11 e
#65
b1010000000001011 C
1X
b1010000000001011 [
#66
0X
b100000000000001100 ^
b011 d
b00 e
#67
b1010000000001100 C
1X
b1010000000001100 [
#68
0X
b100000000000001101 ^
b01 e
#69
b1010000000001101 C
1X
b1010000000001101 [
#70
0X
b100000000000001110 ^
b10 e
#71
b1010000000001110 C
1X
b1010000000001110 [
#72
0X
b100000000000001111 ^
b11 e
#73
b1010000000001111 C
1X
b1010000000001111 [
#74
0X
b1011000000000000 Z
1\
b100001000000000000 ^
b000 d
b00 e
#75
b0100110001011001 C
1X
b0100110001011001 [
#76
0X
b1011000000000001 Z
b100001000000000001 ^
b01 e
#77
1X
#78
0X
b1011000000000010 Z
b100001000000000010 ^
b10 e
#79
1X
#80
0X
b1011000000000011 Z
b100001000000000011 ^
b11 e
#81
1X
#82
0X
b1011000000000100 Z
b100001000000000100 ^
b001 d
b00 e
#83
1X
#84
0X
b1011000000000101 Z
b100001000000000101 ^
b01 e
#85
1X
#86
0X
b1011000000000110 Z
b100001000000000110 ^
b10 e
#87
1X
#88
0X
b1011000000000111 Z
b100001000000000111 ^
b11 e
#89
1X
#90
0X
0\
b100001000000000000 ^
b000 d
b00 e
#91
b1011000000000000 C
1X
b1011000000000000 [
#92
0X
b100001000000000001 ^
b01 e
#93
b1011000000000001 C
1X
b1011000000000001 [
#94
0X
b100001000000000010 ^
b10 e
#95
b1011000000000010 C
1X
b1011000000000010 [
#96
0X
b100001000000000011 ^
b11 e
#97
b1011000000000011 C
1X
b1011000000000011 [
#98
0X
b100001000000000100 ^
b001 d
b00 e
#99
b1011000000000100 C
1X
b1011000000000100 [
#100
0X
b100001000000000101 ^
b01 e
#101
b1011000000000101 C
1X
b1011000000000101 [
#102
0X
b100001000000000110 ^
b10 e
#103
b1011000000000110 C
1X
b1011000000000110 [
#104
0X
b100001000000000111 ^
b11 e
#105
b1011000000000111 C
1X
b1011000000000111 [
#106
0X
b100000000000000000 ^
b000 d
b00 e
#107
b1010000000000000 C
1X
b1010000000000000 [
#108
0X
b100000000000000001 ^
b01 e
#109
b1010000000000001 C
1X
b1010000000000001 [
#110
0X
b100000000000000010 ^
b10 e
#111
b1010000000000010 C
1X
b1010000000000010 [
#112
0X
b100000000000000011 ^
b11 e
#113
b1010000000000011 C
1X
b1010000000000011 [
#114
0X
b100000000000000100 ^
b001 d
b00 e
#115
b1010000000000100 C
1X
b1010000000000100 [
#116
0X
b100000000000000101 ^
b01 e
#117
b1010000000000101 C
1X
b1010000000000101 [
#118
0X
b100000000000000110 ^
b10 e
#119
b1010000000000110 C
1X
b1010000000000110 [
#120
0X
b100000000000000111 ^
b11 e
#121
b1010000000000111 C
1X
b1010000000000111 [
#122
0X
b100000000000001000 ^
b010 d
b00 e
#123
b1010000000001000 C
1X
b1010000000001000 [
#124
0X
b100000000000001001 ^
b01 e
#125
b1010000000001001 C
1X
b1010000000001001 [
#126
0X
b100000000000001010 ^
b10 e
#127
b1010000000001010 C
1X
b1010000000001010 [
#128
0X
b100000000000001011 ^
b11 e
#129
b1010000000001011 C
1X
b1010000000001011 [
#130
0X
b100000000000001100 ^
b011 d
b00 e
#131
b1010000000001100 C
1X
b1010000000001100 [
#132
0X
b100000000000001101 ^
b01 e
#133
b1010000000001101 C
1X
b1010000000001101 [
#134
0X
b100000000000001110 ^
b10 e
#135
b1010000000001110 C
1X
b1010000000001110 [
#136
0X
b100000000000001111 ^
b11 e
#137
b1010000000001111 C
1X
b1010000000001111 [
#138
0X
b0000000000000000 Z
1\
b000000000000000000 ^
0c
b000 d
b00 e
#139
b1010000000000000 C
0F
1X
b0000000000000000 [
#140
0X
b0000001111101000 Z
b000000000000000001 ^
b01 e
#141
b0000001111101000 +
b1010000000000001 C
1X
#142
0X
b0000000001000000 Z
b000000000000000010 ^
b10 e
#143
b1000000 3
b1010000000000010 C
b000101111110001111000000 S
b0010111111000111 T
1X
#144
0X
b0000000000000000 Z
b000000000000000011 ^
b11 e
#145
b1010000000000011 C
1X
#146
0X
b0000000000000001 Z
b000000000000000100 ^
b001 d
b00 e
#147
1$
b1010000000000100 C
1X
#148
0X
b0000010001001100 Z
b000000000000000101 ^
b01 e
#149
b0000010001001100 ,
b1010000000000101 C
1X
#150
0X
b0000000001000001 Z
b000000000000000110 ^
b10 e
#151
b1000001 4
b1010000000000110 C
1X
#152
0X
b0000000000000001 Z
b000000000000000111 ^
b11 e
#153
b0001 <
b1010000000000111 C
1X
#154
0X
b0000000000000000 Z
b000000000000001000 ^
b010 d
b00 e
#155
b1010000000001000 C
1X
#156
0X
b0000010010110000 Z
b000000000000001001 ^
b01 e
#157
b0000010010110000 -
b1010000000001001 C
1X
#158
0X
b0000000001000010 Z
b000000000000001010 ^
b10 e
#159
b1000010 5
b1010000000001010 C
1X
#160
0X
b0000000000000010 Z
b000000000000001011 ^
b11 e
#161
b0010 =
b1010000000001011 C
1X
#162
0X
b0000000000000001 Z
b000000000000001100 ^
b011 d
b00 e
#163
1&
b1010000000001100 C
1X
#164
0X
b0000010100010100 Z
b000000000000001101 ^
b01 e
#165
b0000010100010100 .
b1010000000001101 C
1X
#166
0X
b0000000001000011 Z
b000000000000001110 ^
b10 e
#167
b1000011 6
b1010000000001110 C
1X
#168
0X
b0000000000000011 Z
b000000000000001111 ^
b11 e
#169
b0011 >
b1010000000001111 C
1X
#170
0X
b0000000000000000 Z
b000000000000010000 ^
b100 d
b00 e
#171
b0100110001011001 C
1X
#172
0X
b0000010101111000 Z
b000000000000010001 ^
b01 e
#173
b0000010101111000 /
1X
#174
0X
b0000000001000100 Z
b000000000000010010 ^
b10 e
#175
b1000100 7
1X
#176
0X
b0000000000000100 Z
b000000000000010011 ^
b11 e
#177
b0100 ?
1X
#178
0X
b0000000000000001 Z
b000000000000010100 ^
b101 d
b00 e
#179
1(
1X
#180
0X
b0000010111011100 Z
b000000000000010101 ^
b01 e
#181
b0000010111011100 0
1X
#182
0X
b0000000001000101 Z
b000000000000010110 ^
b10 e
#183
b1000101 8
1X
#184
0X
b0000000000000101 Z
b000000000000010111 ^
b11 e
#185
b0101 @
1X
#186
0X
b0000000000000000 Z
b000000000000011000 ^
b110 d
b00 e
#187
1X
#188
0X
b0000011001000000 Z
b000000000000011001 ^
b01 e
#189
b0000011001000000 1
1X
#190
0X
b0000000001000110 Z
b000000000000011010 ^
b10 e
#191
b1000110 9
1X
#192
0X
b0000000000000110 Z
b000000000000011011 ^
b11 e
#193
b0110 A
1X
#194
0X
b0000000000000001 Z
b000000000000011100 ^
b111 d
b00 e
#195
1*
1X
#196
0X
b0000011010100100 Z
b000000000000011101 ^
b01 e
#197
b0000011010100100 2
1X
#198
0X
b0000000001000111 Z
b000000000000011110 ^
b10 e
#199
b1000111 :
1X
#200
0X
b0000000000000111 Z
b000000000000011111 ^
b11 e
#201
b0111 B
1X
#202
0X
0\
b000000000000000000 ^
b000 d
b00 e
#203
b1010000000000000 C
1X
#204
0X
b000000000000000001 ^
b01 e
#205
b1010000000000001 C
b0000001111101000 G
1X
b0000001111101000 [
#206
0X
b000000000000000010 ^
b10 e
#207
b1010000000000010 C
b0000000001000000 G
1X
b0000000001000000 [
#208
0X
b000000000000000011 ^
b11 e
#209
b1010000000000011 C
b0000000000000000 G
1X
b0000000000000000 [
#210
0X
b000000000000000100 ^
b001 d
b00 e
#211
b1010000000000100 C
b0000000000000001 G
1X
b0000000000000001 [
#212
0X
b000000000000000101 ^
b01 e
#213
b1010000000000101 C
b0000010001001100 G
1X
b0000010001001100 [
#214
0X
b000000000000000110 ^
b10 e
#215
b1010000000000110 C
b0000000001000001 G
1X
b0000000001000001 [
#216
0X
b000000000000000111 ^
b11 e
#217
b1010000000000111 C
b0000000000000001 G
1X
b0000000000000001 [
#218
0X
b000000000000001000 ^
b010 d
b00 e
#219
b1010000000001000 C
b0000000000000000 G
1X
b0000000000000000 [
#220
0X
b000000000000001001 ^
b01 e
#221
b1010000000001001 C
b0000010010110000 G
1X
b0000010010110000 [
#222
0X
b000000000000001010 ^
b10 e
#223
b1010000000001010 C
b0000000001000010 G
1X
b0000000001000010 [
#224
0X
b000000000000001011 ^
b11 e
#225
b1010000000001011 C
b0000000000000010 G
1X
b0000000000000010 [
#226
0X
b000000000000001100 ^
b011 d
b00 e
#227
b1010000000001100 C
b0000000000000001 G
1X
b0000000000000001 [
#228
0X
b000000000000001101 ^
b01 e
#229
b1010000000001101 C
b0000010100010100 G
1X
b0000010100010100 [
#230
0X
b000000000000001110 ^
b10 e
#231
b1010000000001110 C
b0000000001000011 G
1X
b0000000001000011 [
#232
0X
b000000000000001111 ^
b11 e
#233
b1010000000001111 C
b0000000000000011 G
1X
b0000000000000011 [
#234
0X
b000000000000010000 ^
b100 d
b00 e
#235
b0100110001011001 C
b0000000000000000 G
1X
b0000000000000000 [
#236
0X
b000000000000010001 ^
b01 e
#237
b0000010101111000 G
1X
b0000010101111000 [
#238
0X
b000000000000010010 ^
b10 e
#239
b0000000001000100 G
1X
b0000000001000100 [
#240
0X
b000000000000010011 ^
b11 e
#241
b0000000000000100 G
1X
b0000000000000100 [
#242
0X
b000000000000010100 ^
b101 d
b00 e
#243
b0000000000000001 G
1X
b0000000000000001 [
#244
0X
b000000000000010101 ^
b01 e
#245
b0000010111011100 G
1X
b0000010111011100 [
#246
0X
b000000000000010110 ^
b10 e
#247
b0000000001000101 G
1X
b0000000001000101 [
#248
0X
b000000000000010111 ^
b11 e
#249
b0000000000000101 G
1X
b0000000000000101 [
#250
0X
b000000000000011000 ^
b110 d
b00 e
#251
b0000000000000000 G
1X
b0000000000000000 [
#252
0X
b000000000000011001 ^
b01 e
#253
b0000011001000000 G
1X
b0000011001000000 [
#254
0X
b000000000000011010 ^
b10 e
#255
b0000000001000110 G
1X
b0000000001000110 [
#256
0X
b000000000000011011 ^
b11 e
#257
b0000000000000110 G
1X
b0000000000000110 [
#258
0X
b000000000000011100 ^
b111 d
b00 e
#259
b0000000000000001 G
1X
b0000000000000001 [
#260
0X
b000000000000011101 ^
b01 e
#261
b0000011010100100 G
1X
b0000011010100100 [
#262
0X
b000000000000011110 ^
b10 e
#263
b0000000001000111 G
1X
b0000000001000111 [
#264
0X
b000000000000011111 ^
b11 e
#265
b0000000000000111 G
1X
b0000000000000111 [
#266
0X
b1101111010101101 Z
1\
b101011111111111111 ^
1c
#267
1F
1X
b0100110001011001 [
#268
0X
0\
#269
b1101111010101101 C
1X
b1101111010101101 [
